<?xml version="1.0" encoding="UTF-8" standalone="no"?>
<!-- Created with Inkscape (http://www.inkscape.org/) -->

<svg
   xmlns:dc="http://purl.org/dc/elements/1.1/"
   xmlns:cc="http://creativecommons.org/ns#"
   xmlns:rdf="http://www.w3.org/1999/02/22-rdf-syntax-ns#"
   xmlns:svg="http://www.w3.org/2000/svg"
   xmlns="http://www.w3.org/2000/svg"
   xmlns:sodipodi="http://sodipodi.sourceforge.net/DTD/sodipodi-0.dtd"
   xmlns:inkscape="http://www.inkscape.org/namespaces/inkscape"
   width="474.5155mm"
   height="276.52628mm"
   viewBox="0 0 1681.3541 979.81751"
   id="svg5125"
   version="1.1"
   inkscape:version="0.91 r13725"
   sodipodi:docname="b3-box-04-export.svg">
  <defs
     id="defs5127" />
  <sodipodi:namedview
     id="base"
     pagecolor="#ffffff"
     bordercolor="#666666"
     borderopacity="1.0"
     inkscape:pageopacity="0.0"
     inkscape:pageshadow="2"
     inkscape:zoom="0.49497475"
     inkscape:cx="349.71675"
     inkscape:cy="280.5542"
     inkscape:document-units="mm"
     inkscape:current-layer="layer1"
     showgrid="false"
     fit-margin-top="0"
     fit-margin-left="0"
     fit-margin-right="0"
     fit-margin-bottom="0"
     inkscape:showpageshadow="false"
     inkscape:window-width="1366"
     inkscape:window-height="719"
     inkscape:window-x="0"
     inkscape:window-y="25"
     inkscape:window-maximized="1" />
  <metadata
     id="metadata5130">
    <rdf:RDF>
      <cc:Work
         rdf:about="">
        <dc:format>image/svg+xml</dc:format>
        <dc:type
           rdf:resource="http://purl.org/dc/dcmitype/StillImage" />
        <dc:title />
      </cc:Work>
    </rdf:RDF>
  </metadata>
  <g
     inkscape:label="Calque 1"
     inkscape:groupmode="layer"
     id="layer1"
     transform="translate(465.67708,-42.453439)">
    <g
       id="g5436"
       transform="matrix(0,1,-1,0,4061.7203,-1485.1695)">
      <path
         id="rect4891"
         transform="translate(-6.1035156e-5,166.53544)"
         d="m 1563.0566,2679.5078 0,10.6289 -35.4336,0 0,524.4102 35.4336,0 0,10.6289 35.4336,0 0,-10.6289 141.7325,0 0,10.6289 70.8652,0 0,-10.6289 0,-524.4102 -73.5508,0 0,-10.6289 -70.8652,0 0,10.6289 -68.1817,0 0,-10.6289 -35.4336,0 z"
         style="opacity:0.5;fill:#8d8d8d;fill-opacity:1;fill-rule:evenodd;stroke:none;stroke-width:26;stroke-linecap:square;stroke-linejoin:miter;stroke-miterlimit:4;stroke-dasharray:none;stroke-dashoffset:0;stroke-opacity:1"
         inkscape:connector-curvature="0" />
      <path
         style="opacity:0.5;fill:#8d8d8d;fill-opacity:1;fill-rule:evenodd;stroke:none;stroke-width:26;stroke-linecap:square;stroke-linejoin:miter;stroke-miterlimit:4;stroke-dasharray:none;stroke-dashoffset:0;stroke-opacity:1"
         d="m 1686.1598,2856.6726 31.8898,0 0,451.5055 -31.8898,0 z"
         id="rect4903" />
    </g>
    <path
       style="opacity:0.5;fill:#8d8d8d;fill-opacity:1;fill-rule:evenodd;stroke:none;stroke-width:26;stroke-linecap:square;stroke-linejoin:miter;stroke-miterlimit:4;stroke-dasharray:none;stroke-dashoffset:0;stroke-opacity:1"
       d="m 1210.6051,718.78037 -10.6289,0 0,-70.8653 -524.41018,0 0,70.8653 -10.6289,0 0,35.4335 10.6289,0 0,106.299 -10.6289,0 0,35.4335 10.6289,0 0,35.4335 524.41018,0 0,-35.4334 10.6289,0 0,-35.4336 -10.6289,0 0,-106.2989 10.6289,0 0,-35.4336 z"
       id="rect4992"
       inkscape:connector-curvature="0" />
    <path
       style="opacity:1;fill:none;fill-opacity:1;fill-rule:evenodd;stroke:none;stroke-width:5;stroke-linecap:square;stroke-linejoin:miter;stroke-miterlimit:4;stroke-dasharray:none;stroke-dashoffset:0;stroke-opacity:1"
       d="m -465.67708,43.404066 0,545.669904 545.66803,0 0,-545.669904 z m 63.1894,28.3476 419.28913,0 c 0,0 -147.15843,144.818404 -209.64453,144.818404 -62.4861,0 -209.6446,-144.818404 -209.6446,-144.818404 z m -34.8593,34.843804 c 0,0 18.4058,11.3202 42.8808,30.3789 l 0,197.084 0,92.125 0,69.332 c -24.4835,19.067 -42.8808,30.3692 -42.8808,30.3692 z m 488.99213,0 0,419.2891 c 0,0 -164.82033,-75.1585 -164.82033,-209.6446 0,-134.4861 164.82073,-209.6445 164.82033,-209.6445 z m -411.71703,59.3695 c 42.8427,39.2698 87.5432,93.778 87.5432,150.275 0,5.2872 -0.4039,9.2499 -1.1515,14.4911 -0.1513,2.0093 -2.331,3.3273 -4.3285,3.3273 l -80.3617,0 c -2.6145,-0.2099 -4.2052,-1.408 -4.2052,-6.1662 l 0,-160.6607 c 0.086,-2.7591 2.5037,-1.2665 2.5037,-1.2665 z m 167.2288,249.943 c 62.4861,0 209.64453,144.8203 209.64453,144.8203 l -419.28913,0 c 0,0 147.1585,-144.8203 209.6446,-144.8203 z m -164.2543,10.2754 30.4898,0 c 3.9302,0.3052 3.1521,2.4787 1.5295,4.5212 -1.8743,2.1736 -3.772,4.3224 -5.6908,6.4436 -8.7975,9.7256 -17.9982,18.8938 -27.1498,27.3799 -2.3877,2.1541 -4.6569,2.9526 -4.6569,-0.9977 l 0,-30.651 c 0,0 -0.7103,-6.7883 5.4782,-6.696 z"
       id="rect5214"
       inkscape:connector-curvature="0"
       sodipodi:nodetypes="cccccccsccccccccccsccsccccccsccscccscccc" />
    <path
       transform="scale(-1,-1)"
       style="opacity:1;fill:none;fill-opacity:1;fill-rule:evenodd;stroke:none;stroke-width:5;stroke-linecap:square;stroke-linejoin:miter;stroke-miterlimit:4;stroke-dasharray:none;stroke-dashoffset:0;stroke-opacity:1"
       d="m 175.12675,-371.16095 35.43308,0 0,10.62992 -35.43308,0 z"
       id="rect5216" />
    <path
       transform="matrix(0,-1,1,0,0,0)"
       style="opacity:1;fill:none;fill-opacity:1;fill-rule:evenodd;stroke:none;stroke-width:5;stroke-linecap:square;stroke-linejoin:miter;stroke-miterlimit:4;stroke-dasharray:none;stroke-dashoffset:0;stroke-opacity:1"
       d="m -333.95612,-148.55205 35.43308,0 0,10.62992 -35.43308,0 z"
       id="rect5218" />
    <path
       style="opacity:1;fill:#000000;fill-opacity:1;fill-rule:evenodd;stroke:none;stroke-width:23.99881935;stroke-linecap:square;stroke-linejoin:miter;stroke-miterlimit:4;stroke-dasharray:none;stroke-dashoffset:0;stroke-opacity:1"
       d="m -166.26863,316.23956 a 26.574802,26.574802 0 0 1 -26.5748,26.57481 26.574802,26.574802 0 0 1 -26.5748,-26.57481 26.574802,26.574802 0 0 1 26.5748,-26.5748 26.574802,26.574802 0 0 1 26.5748,26.5748 z"
       id="circle5220" />
    <path
       transform="scale(-1,-1)"
       style="opacity:1;fill:none;fill-opacity:1;fill-rule:evenodd;stroke:none;stroke-width:5;stroke-linecap:square;stroke-linejoin:miter;stroke-miterlimit:4;stroke-dasharray:none;stroke-dashoffset:0;stroke-opacity:1"
       d="m 175.12675,-271.9483 35.43308,0 0,10.62992 -35.43308,0 z"
       id="rect5222" />
    <path
       style="opacity:1;fill:none;fill-opacity:1;fill-rule:evenodd;stroke:none;stroke-width:1;stroke-linecap:square;stroke-linejoin:miter;stroke-miterlimit:4;stroke-dasharray:none;stroke-dashoffset:0;stroke-opacity:1"
       d="m -313.31596,359.20807 a 5.3149605,5.3149605 0 0 1 -5.31496,5.31496 5.3149605,5.3149605 0 0 1 -5.31496,-5.31496 5.3149605,5.3149605 0 0 1 5.31496,-5.31496 5.3149605,5.3149605 0 0 1 5.31496,5.31496 z"
       id="circle5224" />
    <path
       style="opacity:1;fill:none;fill-opacity:1;fill-rule:evenodd;stroke:none;stroke-width:1;stroke-linecap:square;stroke-linejoin:miter;stroke-miterlimit:4;stroke-dasharray:none;stroke-dashoffset:0;stroke-opacity:1"
       d="m -362.92216,405.27106 a 5.3149605,5.3149605 0 0 1 -5.31496,5.31496 5.3149605,5.3149605 0 0 1 -5.31496,-5.31496 5.3149605,5.3149605 0 0 1 5.31496,-5.31496 5.3149605,5.3149605 0 0 1 5.31496,5.31496 z"
       id="circle5226" />
    <g
       transform="matrix(0.77162458,-0.63607822,0.63607822,0.77162458,-1763.4946,-2863.0211)"
       id="g5236">
      <path
         transform="scale(1,-1)"
         style="opacity:0.5;fill:#8d8d8d;fill-opacity:1;fill-rule:evenodd;stroke:none;stroke-width:26;stroke-linecap:square;stroke-linejoin:miter;stroke-miterlimit:4;stroke-dasharray:none;stroke-dashoffset:0;stroke-opacity:1"
         d="m -941.12671,-3493.5354 70.86614,0 0,10.6299 -70.86614,0 z"
         id="rect5238" />
      <path
         style="opacity:0.5;fill:#8d8d8d;fill-opacity:1;fill-rule:evenodd;stroke:none;stroke-width:26;stroke-linecap:square;stroke-linejoin:miter;stroke-miterlimit:4;stroke-dasharray:none;stroke-dashoffset:0;stroke-opacity:1"
         d="m -1118.2921,3482.9055 35.4331,0 0,10.6299 -35.4331,0 z"
         id="rect5240" />
    </g>
    <path
       transform="matrix(0.77162458,0.63607822,-0.63607822,0.77162458,0,0)"
       style="opacity:0.5;fill:#8d8d8d;fill-opacity:1;fill-rule:evenodd;stroke:none;stroke-width:26;stroke-linecap:square;stroke-linejoin:miter;stroke-miterlimit:4;stroke-dasharray:none;stroke-dashoffset:0;stroke-opacity:1"
       d="m 183.16483,397.33447 35.43307,0 0,10.62992 -35.43307,0 z"
       id="rect5246" />
    <path
       transform="matrix(0.77162458,0.63607822,-0.63607822,0.77162458,0,0)"
       style="opacity:0.5;fill:#8d8d8d;fill-opacity:1;fill-rule:evenodd;stroke:none;stroke-width:26;stroke-linecap:square;stroke-linejoin:miter;stroke-miterlimit:4;stroke-dasharray:none;stroke-dashoffset:0;stroke-opacity:1"
       d="m 324.89609,397.33447 35.43307,0 0,10.62992 -35.43307,0 z"
       id="rect5248" />
    <path
       transform="matrix(0.77162458,-0.63607822,-0.63607822,-0.77162458,0,0)"
       style="opacity:0.5;fill:#8d8d8d;fill-opacity:1;fill-rule:evenodd;stroke:none;stroke-width:26;stroke-linecap:square;stroke-linejoin:miter;stroke-miterlimit:4;stroke-dasharray:none;stroke-dashoffset:0;stroke-opacity:1"
       d="m -219.13414,-90.709549 35.43307,0 0,10.629921 -35.43307,0 z"
       id="rect5250" />
    <path
       transform="matrix(0.77162458,-0.63607822,-0.63607822,-0.77162458,0,0)"
       style="opacity:0.5;fill:#8d8d8d;fill-opacity:1;fill-rule:evenodd;stroke:none;stroke-width:26;stroke-linecap:square;stroke-linejoin:miter;stroke-miterlimit:4;stroke-dasharray:none;stroke-dashoffset:0;stroke-opacity:1"
       d="m -77.401939,-90.709549 35.433071,0 0,10.629921 -35.433071,0 z"
       id="rect5252" />
    <g
       id="g5254"
       transform="translate(291.36401,-2028.0943)">
      <path
         style="opacity:1;fill:#000000;fill-opacity:1;fill-rule:evenodd;stroke:none;stroke-width:23.99881935;stroke-linecap:square;stroke-linejoin:miter;stroke-miterlimit:4;stroke-dasharray:none;stroke-dashoffset:0;stroke-opacity:1"
         d="m -725.1522,2098.074 a 5.3149605,5.3149605 0 0 1 -5.31496,5.3149 5.3149605,5.3149605 0 0 1 -5.31496,-5.3149 5.3149605,5.3149605 0 0 1 5.31496,-5.315 5.3149605,5.3149605 0 0 1 5.31496,5.315 z"
         id="circle5256" />
    </g>
    <g
       transform="translate(783.88372,-2028.0943)"
       id="g5258">
      <path
         style="opacity:1;fill:#000000;fill-opacity:1;fill-rule:evenodd;stroke:none;stroke-width:23.99881935;stroke-linecap:square;stroke-linejoin:miter;stroke-miterlimit:4;stroke-dasharray:none;stroke-dashoffset:0;stroke-opacity:1"
         d="m -725.1522,2098.074 a 5.3149605,5.3149605 0 0 1 -5.31496,5.3149 5.3149605,5.3149605 0 0 1 -5.31496,-5.3149 5.3149605,5.3149605 0 0 1 5.31496,-5.315 5.3149605,5.3149605 0 0 1 5.31496,5.315 z"
         id="circle5260" />
    </g>
    <path
       style="opacity:1;fill:#000000;fill-opacity:1;fill-rule:evenodd;stroke:none;stroke-width:23.99881935;stroke-linecap:square;stroke-linejoin:miter;stroke-miterlimit:4;stroke-dasharray:none;stroke-dashoffset:0;stroke-opacity:1"
       d="m 58.73151,562.49957 a 5.3149605,5.3149605 0 0 1 -5.31496,5.31496 5.3149605,5.3149605 0 0 1 -5.314961,-5.31496 5.3149605,5.3149605 0 0 1 5.314961,-5.31496 5.3149605,5.3149605 0 0 1 5.31496,5.31496 z"
       id="circle5262" />
    <path
       style="opacity:1;fill:#000000;fill-opacity:1;fill-rule:evenodd;stroke:none;stroke-width:23.99881935;stroke-linecap:square;stroke-linejoin:miter;stroke-miterlimit:4;stroke-dasharray:none;stroke-dashoffset:0;stroke-opacity:1"
       d="m -433.78834,562.49957 a 5.3149605,5.3149605 0 0 1 -5.31496,5.31496 5.3149605,5.3149605 0 0 1 -5.31496,-5.31496 5.3149605,5.3149605 0 0 1 5.31496,-5.31496 5.3149605,5.3149605 0 0 1 5.31496,5.31496 z"
       id="circle5264" />
    <path
       transform="matrix(0,1,-1,0,0,0)"
       style="opacity:0.5;fill:#8d8d8d;fill-opacity:1;fill-rule:evenodd;stroke:none;stroke-width:26;stroke-linecap:square;stroke-linejoin:miter;stroke-miterlimit:4;stroke-dasharray:none;stroke-dashoffset:0;stroke-opacity:1"
       d="m 463.28693,373.20538 35.43307,0 0,10.62992 -35.43307,0 z"
       id="rect5331" />
    <path
       transform="matrix(0,1,-1,0,0,0)"
       style="opacity:0.5;fill:#8d8d8d;fill-opacity:1;fill-rule:evenodd;stroke:none;stroke-width:26;stroke-linecap:square;stroke-linejoin:miter;stroke-miterlimit:4;stroke-dasharray:none;stroke-dashoffset:0;stroke-opacity:1"
       d="m 133.75934,373.20538 35.43307,0 0,10.62992 -35.43307,0 z"
       id="rect5333" />
    <path
       style="opacity:1;fill:none;fill-opacity:1;fill-rule:evenodd;stroke:none;stroke-width:5;stroke-linecap:square;stroke-linejoin:miter;stroke-miterlimit:4;stroke-dasharray:none;stroke-dashoffset:0;stroke-opacity:1"
       d="m 102.32295,43.404066 0,545.669904 545.66797,0 0,-545.669904 z m 63.1894,28.3476 419.28907,0 c 0,0 -147.15837,144.818404 -209.64447,144.818404 -62.4861,0 -209.6446,-144.818404 -209.6446,-144.818404 z m -34.8593,34.843804 c 0,0 18.4058,11.3202 42.8808,30.3789 l 0,47.3516 c 13.1428,7.5871 21.24567,21.6038 21.2617,36.7793 -0.0216,15.1699 -8.12375,29.1793 -21.2617,36.7636 l 0,237.6465 c -24.4835,19.067 -42.8808,30.3692 -42.8808,30.3692 l 0,-268.2227 c -12.93457,-7.6385 -20.87888,-21.535 -20.8985,-36.5566 0.0203,-15.0209 7.96451,-28.9166 20.8985,-36.5547 z m 488.99207,0 0,419.2891 c 0,0 -164.82027,-75.1585 -164.82027,-209.6446 0,-134.4861 164.82047,-209.6445 164.82027,-209.6445 z m -405.59633,65.0747 c 40.87304,38.7541 81.42256,90.7599 81.42256,144.5698 0,43.4968 -26.49548,85.815 -58.2402,120.9082 -8.05967,8.9098 -16.4576,17.3518 -24.84621,25.2302 -3.06783,2.6237 -6.96049,2.4013 -6.96049,-4.2957 l 0,-281.1394 c -0.27237,-7.4173 5.87591,-7.9441 8.62434,-5.2731 z m 161.10816,244.2378 c 62.4861,0 209.64447,144.8203 209.64447,144.8203 l -419.28907,0 c 0,0 147.1585,-144.8203 209.6446,-144.8203 z"
       id="rect5274"
       inkscape:connector-curvature="0"
       sodipodi:nodetypes="cccccccsccccccccccccccsccssccccsccs" />
    <path
       transform="scale(-1,-1)"
       style="opacity:1;fill:none;fill-opacity:1;fill-rule:evenodd;stroke:none;stroke-width:5;stroke-linecap:square;stroke-linejoin:miter;stroke-miterlimit:4;stroke-dasharray:none;stroke-dashoffset:0;stroke-opacity:1"
       d="m -392.87332,-371.16095 35.43307,0 0,10.62992 -35.43307,0 z"
       id="rect5276" />
    <path
       transform="matrix(0,-1,1,0,0,0)"
       style="opacity:1;fill:none;fill-opacity:1;fill-rule:evenodd;stroke:none;stroke-width:5;stroke-linecap:square;stroke-linejoin:miter;stroke-miterlimit:4;stroke-dasharray:none;stroke-dashoffset:0;stroke-opacity:1"
       d="m -333.95612,419.44803 35.43308,0 0,10.62992 -35.43308,0 z"
       id="rect5278" />
    <path
       style="opacity:1;fill:#000000;fill-opacity:1;fill-rule:evenodd;stroke:none;stroke-width:23.99881935;stroke-linecap:square;stroke-linejoin:miter;stroke-miterlimit:4;stroke-dasharray:none;stroke-dashoffset:0;stroke-opacity:1"
       d="m 401.73133,316.23956 a 26.574802,26.574802 0 0 1 -26.57481,26.57481 26.574802,26.574802 0 0 1 -26.5748,-26.57481 26.574802,26.574802 0 0 1 26.5748,-26.5748 26.574802,26.574802 0 0 1 26.57481,26.5748 z"
       id="circle5280" />
    <path
       transform="scale(-1,-1)"
       style="opacity:1;fill:none;fill-opacity:1;fill-rule:evenodd;stroke:none;stroke-width:5;stroke-linecap:square;stroke-linejoin:miter;stroke-miterlimit:4;stroke-dasharray:none;stroke-dashoffset:0;stroke-opacity:1"
       d="m -392.87332,-271.9483 35.43307,0 0,10.62992 -35.43307,0 z"
       id="rect5282" />
    <path
       transform="matrix(0.77162458,0.63607822,-0.63607822,0.77162458,0,0)"
       style="opacity:0.5;fill:#8d8d8d;fill-opacity:1;fill-rule:evenodd;stroke:none;stroke-width:26;stroke-linecap:square;stroke-linejoin:miter;stroke-miterlimit:4;stroke-dasharray:none;stroke-dashoffset:0;stroke-opacity:1"
       d="m 621.44379,36.042229 35.43307,0 0,10.629921 -35.43307,0 z"
       id="rect5304" />
    <path
       transform="matrix(0.77162458,0.63607822,-0.63607822,0.77162458,0,0)"
       style="opacity:0.5;fill:#8d8d8d;fill-opacity:1;fill-rule:evenodd;stroke:none;stroke-width:26;stroke-linecap:square;stroke-linejoin:miter;stroke-miterlimit:4;stroke-dasharray:none;stroke-dashoffset:0;stroke-opacity:1"
       d="m 763.17505,36.042229 35.43307,0 0,10.629921 -35.43307,0 z"
       id="rect5306" />
    <path
       transform="matrix(0.77162458,-0.63607822,-0.63607822,-0.77162458,0,0)"
       style="opacity:0.5;fill:#8d8d8d;fill-opacity:1;fill-rule:evenodd;stroke:none;stroke-width:26;stroke-linecap:square;stroke-linejoin:miter;stroke-miterlimit:4;stroke-dasharray:none;stroke-dashoffset:0;stroke-opacity:1"
       d="m 219.14883,-452.00583 35.43308,0 0,10.62992 -35.43308,0 z"
       id="rect5308" />
    <path
       transform="matrix(0.77162458,-0.63607822,-0.63607822,-0.77162458,0,0)"
       style="opacity:0.5;fill:#8d8d8d;fill-opacity:1;fill-rule:evenodd;stroke:none;stroke-width:26;stroke-linecap:square;stroke-linejoin:miter;stroke-miterlimit:4;stroke-dasharray:none;stroke-dashoffset:0;stroke-opacity:1"
       d="m 360.88089,-452.00583 35.43307,0 0,10.62992 -35.43307,0 z"
       id="rect5310" />
    <g
       transform="translate(859.36402,-2028.0943)"
       id="g5312">
      <path
         style="opacity:1;fill:#000000;fill-opacity:1;fill-rule:evenodd;stroke:none;stroke-width:23.99881935;stroke-linecap:square;stroke-linejoin:miter;stroke-miterlimit:4;stroke-dasharray:none;stroke-dashoffset:0;stroke-opacity:1"
         d="m -725.1522,2098.074 a 5.3149605,5.3149605 0 0 1 -5.31496,5.3149 5.3149605,5.3149605 0 0 1 -5.31496,-5.3149 5.3149605,5.3149605 0 0 1 5.31496,-5.315 5.3149605,5.3149605 0 0 1 5.31496,5.315 z"
         id="circle5314" />
    </g>
    <g
       id="g5316"
       transform="translate(1351.8837,-2028.0943)">
      <path
         style="opacity:1;fill:#000000;fill-opacity:1;fill-rule:evenodd;stroke:none;stroke-width:23.99881935;stroke-linecap:square;stroke-linejoin:miter;stroke-miterlimit:4;stroke-dasharray:none;stroke-dashoffset:0;stroke-opacity:1"
         d="m -725.1522,2098.074 a 5.3149605,5.3149605 0 0 1 -5.31496,5.3149 5.3149605,5.3149605 0 0 1 -5.31496,-5.3149 5.3149605,5.3149605 0 0 1 5.31496,-5.315 5.3149605,5.3149605 0 0 1 5.31496,5.315 z"
         id="circle5318" />
    </g>
    <path
       style="opacity:1;fill:#000000;fill-opacity:1;fill-rule:evenodd;stroke:none;stroke-width:23.99881935;stroke-linecap:square;stroke-linejoin:miter;stroke-miterlimit:4;stroke-dasharray:none;stroke-dashoffset:0;stroke-opacity:1"
       d="m 626.73153,562.49957 a 5.3149605,5.3149605 0 0 1 -5.31497,5.31496 5.3149605,5.3149605 0 0 1 -5.31496,-5.31496 5.3149605,5.3149605 0 0 1 5.31496,-5.31496 5.3149605,5.3149605 0 0 1 5.31497,5.31496 z"
       id="circle5320" />
    <path
       style="opacity:1;fill:#000000;fill-opacity:1;fill-rule:evenodd;stroke:none;stroke-width:23.99881935;stroke-linecap:square;stroke-linejoin:miter;stroke-miterlimit:4;stroke-dasharray:none;stroke-dashoffset:0;stroke-opacity:1"
       d="m 134.21173,562.49957 a 5.3149605,5.3149605 0 0 1 -5.31496,5.31496 5.3149605,5.3149605 0 0 1 -5.31496,-5.31496 5.3149605,5.3149605 0 0 1 5.31496,-5.31496 5.3149605,5.3149605 0 0 1 5.31496,5.31496 z"
       id="circle5322" />
    <path
       transform="matrix(0,1,-1,0,0,0)"
       style="opacity:0.5;fill:#8d8d8d;fill-opacity:1;fill-rule:evenodd;stroke:none;stroke-width:26;stroke-linecap:square;stroke-linejoin:miter;stroke-miterlimit:4;stroke-dasharray:none;stroke-dashoffset:0;stroke-opacity:1"
       d="m 463.28693,-194.79472 35.43307,0 0,10.62992 -35.43307,0 z"
       id="rect5335" />
    <path
       transform="matrix(0,1,-1,0,0,0)"
       style="opacity:0.5;fill:#8d8d8d;fill-opacity:1;fill-rule:evenodd;stroke:none;stroke-width:26;stroke-linecap:square;stroke-linejoin:miter;stroke-miterlimit:4;stroke-dasharray:none;stroke-dashoffset:0;stroke-opacity:1"
       d="m 133.75934,-194.79472 35.43307,0 0,10.62992 -35.43307,0 z"
       id="rect5337" />
    <g
       transform="translate(490.41752,499.13467)"
       id="g5443">
      <path
         style="opacity:1;fill:none;fill-opacity:1;fill-rule:evenodd;stroke:none;stroke-width:1;stroke-linecap:square;stroke-linejoin:miter;stroke-miterlimit:4;stroke-dasharray:none;stroke-dashoffset:0;stroke-opacity:1"
         d="m -726.56785,134.65126 a 5.3149605,5.3149605 0 0 1 -5.31496,5.31496 5.3149605,5.3149605 0 0 1 -5.31496,-5.31496 5.3149605,5.3149605 0 0 1 5.31496,-5.31496 5.3149605,5.3149605 0 0 1 5.31496,5.31496 z"
         id="circle5445" />
      <path
         style="opacity:1;fill:none;fill-opacity:1;fill-rule:evenodd;stroke:none;stroke-width:1;stroke-linecap:square;stroke-linejoin:miter;stroke-miterlimit:4;stroke-dasharray:none;stroke-dashoffset:0;stroke-opacity:1"
         d="m -627.35521,191.34413 a 5.3149605,5.3149605 0 0 1 -5.31496,5.31496 5.3149605,5.3149605 0 0 1 -5.31496,-5.31496 5.3149605,5.3149605 0 0 1 5.31496,-5.31496 5.3149605,5.3149605 0 0 1 5.31496,5.31496 z"
         id="circle5447" />
    </g>
    <path
       style="opacity:1;fill:#000000;fill-opacity:1;fill-rule:evenodd;stroke:none;stroke-width:23.99881935;stroke-linecap:square;stroke-linejoin:miter;stroke-miterlimit:4;stroke-dasharray:none;stroke-dashoffset:0;stroke-opacity:1"
       d="m -454.06398,617.84167 0,26.5742 -10.6289,0 0,35.4336 10.6289,0 0,26.5743 524.41022,0 0,-26.5743 10.62891,0 0,-35.4336 -10.62891,0 0,-26.5742 -524.41022,0 z"
       id="rect5451"
       inkscape:connector-curvature="0" />
    <path
       style="opacity:1;fill:#f5f5f5;fill-opacity:1;fill-rule:evenodd;stroke:none;stroke-width:5;stroke-linecap:square;stroke-linejoin:miter;stroke-miterlimit:4;stroke-dasharray:none;stroke-dashoffset:0;stroke-opacity:1"
       d="m 92.99079,613.83587 0,35.4336 10.63086,0 0,174.1816 96.01367,0 0,80.3164 -96.01367,0 0,39.5957 -10.63086,0 0,35.4336 10.63086,0 524.40817,0 10.6309,0 0,-35.4336 -10.6309,0 0,-216.1426 -120.64645,0 0,-85.039 120.64645,0 0,0.016 10.6309,0 0,-28.3613 -10.6309,0 -524.40817,0 z"
       id="rect5477"
       inkscape:connector-curvature="0"
       sodipodi:nodetypes="ccccccccccccccccccccccccc" />
    <path
       style="opacity:1;fill:none;fill-opacity:1;fill-rule:evenodd;stroke:none;stroke-width:5;stroke-linecap:square;stroke-linejoin:miter;stroke-miterlimit:4;stroke-dasharray:none;stroke-dashoffset:0;stroke-opacity:1"
       d="m -294.28128,933.68897 -155.9062,0 0,77.95303 0,10.6289 17.7168,0 0,-10.6289 40.7988,0 a 35.433071,35.433071 0 0 1 -1.3223,-0.6387 35.433071,35.433071 0 0 1 -3.0195,-1.8516 35.433071,35.433071 0 0 1 -2.8184,-2.1424 35.433071,35.433071 0 0 1 -2.5918,-2.4141 35.433071,35.433071 0 0 1 -2.3379,-2.6621 35.433071,35.433071 0 0 1 -2.0605,-2.88103 35.433071,35.433071 0 0 1 -1.7617,-3.0722 35.433071,35.433071 0 0 1 -1.4473,-3.2324 35.433071,35.433071 0 0 1 -1.1172,-3.3614 35.433071,35.433071 0 0 1 -0.7754,-3.4551 35.433071,35.433071 0 0 1 -0.4277,-3.5156 35.433071,35.433071 0 0 1 -0.088,-2.5078 35.433071,35.433071 0 0 1 0.1777,-3.537 35.433071,35.433071 0 0 1 0.5293,-3.5021 35.433071,35.433071 0 0 1 0.875,-3.4316 35.433071,35.433071 0 0 1 1.2149,-3.3261 35.433071,35.433071 0 0 1 1.541,-3.1894 35.433071,35.433071 0 0 1 1.8516,-3.0197 35.433071,35.433071 0 0 1 2.1425,-2.8202 35.433071,35.433071 0 0 1 2.4141,-2.5919 35.433071,35.433071 0 0 1 2.6621,-2.3379 35.433071,35.433071 0 0 1 2.8809,-2.0585 35.433071,35.433071 0 0 1 3.0722,-1.7637 35.433071,35.433071 0 0 1 3.2325,-1.4453 35.433071,35.433071 0 0 1 3.3613,-1.1172 35.433071,35.433071 0 0 1 3.4551,-0.7754 35.433071,35.433071 0 0 1 3.5156,-0.4276 35.433071,35.433071 0 0 1 2.5078,-0.088 35.433071,35.433071 0 0 1 3.5371,0.1758 35.433071,35.433071 0 0 1 3.502,0.5292 35.433071,35.433071 0 0 1 3.4316,0.877 35.433071,35.433071 0 0 1 3.3262,1.2148 35.433071,35.433071 0 0 1 3.1894,1.541 35.433071,35.433071 0 0 1 3.0196,1.8497 35.433071,35.433071 0 0 1 2.8203,2.1445 35.433071,35.433071 0 0 1 2.5918,2.4141 35.433071,35.433071 0 0 1 2.3379,2.6601 35.433071,35.433071 0 0 1 2.0605,2.8809 35.433071,35.433071 0 0 1 1.7617,3.0723 35.433071,35.433071 0 0 1 1.4473,3.2343 35.433071,35.433071 0 0 1 1.1152,3.3614 35.433071,35.433071 0 0 1 0.7774,3.4551 35.433071,35.433071 0 0 1 0.4258,3.5156 35.433071,35.433071 0 0 1 0.09,2.5059 35.433071,35.433071 0 0 1 -0.1777,3.5391 35.433071,35.433071 0 0 1 -0.5293,3.5019 35.433071,35.433071 0 0 1 -0.877,3.4317 35.433071,35.433071 0 0 1 -1.2148,3.326 35.433071,35.433071 0 0 1 -1.5391,3.1896 35.433071,35.433071 0 0 1 -1.8516,3.0195 35.433071,35.433071 0 0 1 -2.1445,2.82033 35.433071,35.433071 0 0 1 -2.4141,2.5898 35.433071,35.433071 0 0 1 -2.6601,2.338 35.433071,35.433071 0 0 1 -2.8809,2.0605 35.433071,35.433071 0 0 1 -3.0722,1.7617 35.433071,35.433071 0 0 1 -0.3496,0.1563 l 37.4257,0 0,10.6289 17.7168,0 0,-10.6289 10.8594,0 0,-77.95323 z"
       id="rect5505"
       inkscape:connector-curvature="0" />
    <path
       style="opacity:1;fill:none;fill-opacity:1;fill-rule:evenodd;stroke:none;stroke-width:5;stroke-linecap:square;stroke-linejoin:miter;stroke-miterlimit:4;stroke-dasharray:none;stroke-dashoffset:0;stroke-opacity:1"
       d="m 588.08282,741.16559 10.62993,0 0,17.71653 -10.62993,0 z"
       id="rect5523" />
    <path
       style="opacity:1;fill:none;fill-opacity:1;fill-rule:evenodd;stroke:none;stroke-width:5;stroke-linecap:square;stroke-linejoin:miter;stroke-miterlimit:4;stroke-dasharray:none;stroke-dashoffset:0;stroke-opacity:1"
       d="m 588.08282,613.83575 10.62993,0 0,17.71654 -10.62993,0 z"
       id="rect5525" />
    <path
       style="opacity:0.5;fill:#8d8d8d;fill-opacity:1;fill-rule:evenodd;stroke:none;stroke-width:26;stroke-linecap:square;stroke-linejoin:miter;stroke-miterlimit:4;stroke-dasharray:none;stroke-dashoffset:0;stroke-opacity:1"
       d="m 129.60437,814.48126 a 5.3149605,5.3149605 0 0 1 -5.31496,5.31496 5.3149605,5.3149605 0 0 1 -5.31496,-5.31496 5.3149605,5.3149605 0 0 1 5.31496,-5.31496 5.3149605,5.3149605 0 0 1 5.31496,5.31496 z"
       id="path4460" />
    <path
       transform="scale(-1,1)"
       style="opacity:0.5;fill:#8d8d8d;fill-opacity:1;fill-rule:evenodd;stroke:none;stroke-width:26;stroke-linecap:square;stroke-linejoin:miter;stroke-miterlimit:4;stroke-dasharray:none;stroke-dashoffset:0;stroke-opacity:1"
       d="m -335.11616,814.48102 a 5.3149605,5.3149605 0 0 1 -5.31496,5.31496 5.3149605,5.3149605 0 0 1 -5.31496,-5.31496 5.3149605,5.3149605 0 0 1 5.31496,-5.31496 5.3149605,5.3149605 0 0 1 5.31496,5.31496 z"
       id="circle4464" />
    <path
       transform="scale(-1,1)"
       style="opacity:0.5;fill:#8d8d8d;fill-opacity:1;fill-rule:evenodd;stroke:none;stroke-width:26;stroke-linecap:square;stroke-linejoin:miter;stroke-miterlimit:4;stroke-dasharray:none;stroke-dashoffset:0;stroke-opacity:1"
       d="m -563.4279,775.12018 a 5.3149605,5.3149605 0 0 1 -5.31496,5.31496 5.3149605,5.3149605 0 0 1 -5.31496,-5.31496 5.3149605,5.3149605 0 0 1 5.31496,-5.31496 5.3149605,5.3149605 0 0 1 5.31496,5.31496 z"
       id="circle4477" />
    <path
       transform="scale(-1,1)"
       style="opacity:0.5;fill:#8d8d8d;fill-opacity:1;fill-rule:evenodd;stroke:none;stroke-width:26;stroke-linecap:square;stroke-linejoin:miter;stroke-miterlimit:4;stroke-dasharray:none;stroke-dashoffset:0;stroke-opacity:1"
       d="m -380.06182,894.30011 a 6.2007875,6.2007875 0 0 1 -6.20078,6.20079 6.2007875,6.2007875 0 0 1 -6.20079,-6.20079 6.2007875,6.2007875 0 0 1 6.20079,-6.20079 6.2007875,6.2007875 0 0 1 6.20078,6.20079 z"
       id="circle4483" />
    <path
       transform="scale(-1,1)"
       style="opacity:0.5;fill:#8d8d8d;fill-opacity:1;fill-rule:evenodd;stroke:none;stroke-width:26;stroke-linecap:square;stroke-linejoin:miter;stroke-miterlimit:4;stroke-dasharray:none;stroke-dashoffset:0;stroke-opacity:1"
       d="m -380.06182,791.54401 a 6.2007875,6.2007875 0 0 1 -6.20078,6.20078 6.2007875,6.2007875 0 0 1 -6.20079,-6.20078 6.2007875,6.2007875 0 0 1 6.20079,-6.20079 6.2007875,6.2007875 0 0 1 6.20078,6.20079 z"
       id="circle4487" />
    <path
       transform="scale(-1,1)"
       style="opacity:0.5;fill:#8d8d8d;fill-opacity:1;fill-rule:evenodd;stroke:none;stroke-width:26;stroke-linecap:square;stroke-linejoin:miter;stroke-miterlimit:4;stroke-dasharray:none;stroke-dashoffset:0;stroke-opacity:1"
       d="m -443.16609,667.99249 a 5.3149605,5.3149605 0 0 1 -5.31496,5.31496 5.3149605,5.3149605 0 0 1 -5.31496,-5.31496 5.3149605,5.3149605 0 0 1 5.31496,-5.31496 5.3149605,5.3149605 0 0 1 5.31496,5.31496 z"
       id="circle4564" />
    <path
       transform="scale(-1,-1)"
       style="opacity:0.5;fill:#8d8d8d;fill-opacity:1;fill-rule:evenodd;stroke:none;stroke-width:26;stroke-linecap:square;stroke-linejoin:miter;stroke-miterlimit:4;stroke-dasharray:none;stroke-dashoffset:0;stroke-opacity:1"
       d="m -301.43379,-877.04767 a 5.3149605,5.3149605 0 0 1 -5.31496,5.31496 5.3149605,5.3149605 0 0 1 -5.31496,-5.31496 5.3149605,5.3149605 0 0 1 5.31496,-5.31496 5.3149605,5.3149605 0 0 1 5.31496,5.31496 z"
       id="circle4568" />
    <path
       transform="scale(-1,-1)"
       style="opacity:1;fill:none;fill-opacity:1;fill-rule:evenodd;stroke:none;stroke-width:1;stroke-linecap:square;stroke-linejoin:miter;stroke-miterlimit:4;stroke-dasharray:none;stroke-dashoffset:0;stroke-opacity:1"
       d="m 60.757145,-685.16364 a 5.3149605,5.3149605 0 0 1 -5.314961,5.31497 5.3149605,5.3149605 0 0 1 -5.31496,-5.31497 5.3149605,5.3149605 0 0 1 5.31496,-5.31496 5.3149605,5.3149605 0 0 1 5.314961,5.31496 z"
       id="circle4567" />
    <path
       transform="scale(-1,-1)"
       style="opacity:1;fill:none;fill-opacity:1;fill-rule:evenodd;stroke:none;stroke-width:1;stroke-linecap:square;stroke-linejoin:miter;stroke-miterlimit:4;stroke-dasharray:none;stroke-dashoffset:0;stroke-opacity:1"
       d="m 11.15064,-639.10065 a 5.3149605,5.3149605 0 0 1 -5.31496,5.31496 5.3149605,5.3149605 0 0 1 -5.31496047,-5.31496 5.3149605,5.3149605 0 0 1 5.31496047,-5.31496 5.3149605,5.3149605 0 0 1 5.31496,5.31496 z"
       id="circle4569" />
    <path
       style="opacity:1;fill:none;fill-opacity:1;fill-rule:evenodd;stroke:none;stroke-width:1;stroke-linecap:square;stroke-linejoin:miter;stroke-miterlimit:4;stroke-dasharray:none;stroke-dashoffset:0;stroke-opacity:1"
       d="m -322.96061,739.10065 a 5.3149605,5.3149605 0 0 1 -5.31496,5.31496 5.3149605,5.3149605 0 0 1 -5.31496,-5.31496 5.3149605,5.3149605 0 0 1 5.31496,-5.31496 5.3149605,5.3149605 0 0 1 5.31496,5.31496 z"
       id="circle4629" />
    <path
       style="opacity:1;fill:none;fill-opacity:1;fill-rule:evenodd;stroke:none;stroke-width:1;stroke-linecap:square;stroke-linejoin:miter;stroke-miterlimit:4;stroke-dasharray:none;stroke-dashoffset:0;stroke-opacity:1"
       d="m -372.56706,785.16364 a 5.3149605,5.3149605 0 0 1 -5.31496,5.31496 5.3149605,5.3149605 0 0 1 -5.31496,-5.31496 5.3149605,5.3149605 0 0 1 5.31496,-5.31497 5.3149605,5.3149605 0 0 1 5.31496,5.31497 z"
       id="circle4631" />
    <g
       id="g4612"
       transform="matrix(-1,0,0,-1,-874.13518,925.12987)">
      <path
         style="opacity:1;fill:none;fill-opacity:1;fill-rule:evenodd;stroke:none;stroke-width:1;stroke-linecap:square;stroke-linejoin:miter;stroke-miterlimit:4;stroke-dasharray:none;stroke-dashoffset:0;stroke-opacity:1"
         d="m -726.56785,134.65126 a 5.3149605,5.3149605 0 0 1 -5.31496,5.31496 5.3149605,5.3149605 0 0 1 -5.31496,-5.31496 5.3149605,5.3149605 0 0 1 5.31496,-5.31496 5.3149605,5.3149605 0 0 1 5.31496,5.31496 z"
         id="circle4614" />
      <path
         style="opacity:1;fill:none;fill-opacity:1;fill-rule:evenodd;stroke:none;stroke-width:1;stroke-linecap:square;stroke-linejoin:miter;stroke-miterlimit:4;stroke-dasharray:none;stroke-dashoffset:0;stroke-opacity:1"
         d="m -627.35521,191.34413 a 5.3149605,5.3149605 0 0 1 -5.31496,5.31496 5.3149605,5.3149605 0 0 1 -5.31496,-5.31496 5.3149605,5.3149605 0 0 1 5.31496,-5.31496 5.3149605,5.3149605 0 0 1 5.31496,5.31496 z"
         id="circle4617" />
    </g>
    <path
       id="path4621"
       d="m 70.34631,806.42297 0,-26.5742 10.6289,0 0,-35.4336 -10.6289,0 0,-26.5743 -524.41019,0 0,26.5743 -10.629,0 0,35.4336 10.629,0 0,26.5742 524.41019,0 z"
       style="opacity:1;fill:#000000;fill-opacity:1;fill-rule:evenodd;stroke:none;stroke-width:23.99881935;stroke-linecap:square;stroke-linejoin:miter;stroke-miterlimit:4;stroke-dasharray:none;stroke-dashoffset:0;stroke-opacity:1"
       inkscape:connector-curvature="0" />
    <g
       id="g4841"
       transform="translate(363.56184,-2356.1918)">
      <path
         transform="matrix(0.77162458,-0.63607822,-0.63607822,-0.77162458,0,0)"
         style="opacity:0.5;fill:#8d8d8d;fill-opacity:1;fill-rule:evenodd;stroke:none;stroke-width:26;stroke-linecap:square;stroke-linejoin:miter;stroke-miterlimit:4;stroke-dasharray:none;stroke-dashoffset:0;stroke-opacity:1"
         d="m -1895.3027,-2110.7734 70.8661,0 0,10.6299 -70.8661,0 z"
         id="rect4725" />
      <path
         transform="matrix(0.77162458,-0.63607822,-0.63607822,-0.77162458,0,0)"
         style="opacity:0.5;fill:#8d8d8d;fill-opacity:1;fill-rule:evenodd;stroke:none;stroke-width:26;stroke-linecap:square;stroke-linejoin:miter;stroke-miterlimit:4;stroke-dasharray:none;stroke-dashoffset:0;stroke-opacity:1"
         d="m -1998.9167,-2110.7734 35.433,0 0,10.6299 -35.433,0 z"
         id="rect4727" />
    </g>
    <path
       style="opacity:1;fill:none;fill-opacity:1;fill-rule:evenodd;stroke:none;stroke-width:1;stroke-linecap:square;stroke-linejoin:miter;stroke-miterlimit:4;stroke-dasharray:none;stroke-dashoffset:0;stroke-opacity:1"
       d="m -322.96061,839.10065 a 5.3149605,5.3149605 0 0 1 -5.31496,5.31496 5.3149605,5.3149605 0 0 1 -5.31496,-5.31496 5.3149605,5.3149605 0 0 1 5.31496,-5.31496 5.3149605,5.3149605 0 0 1 5.31496,5.31496 z"
       id="circle4908" />
    <path
       style="opacity:1;fill:none;fill-opacity:1;fill-rule:evenodd;stroke:none;stroke-width:1;stroke-linecap:square;stroke-linejoin:miter;stroke-miterlimit:4;stroke-dasharray:none;stroke-dashoffset:0;stroke-opacity:1"
       d="m -372.56706,885.16364 a 5.3149605,5.3149605 0 0 1 -5.31496,5.31496 5.3149605,5.3149605 0 0 1 -5.31496,-5.31496 5.3149605,5.3149605 0 0 1 5.31496,-5.31497 5.3149605,5.3149605 0 0 1 5.31496,5.31497 z"
       id="circle4910" />
    <g
       transform="matrix(-1,0,0,-1,-874.13518,1025.1299)"
       id="g4912">
      <path
         style="opacity:1;fill:none;fill-opacity:1;fill-rule:evenodd;stroke:none;stroke-width:1;stroke-linecap:square;stroke-linejoin:miter;stroke-miterlimit:4;stroke-dasharray:none;stroke-dashoffset:0;stroke-opacity:1"
         d="m -726.56785,134.65126 a 5.3149605,5.3149605 0 0 1 -5.31496,5.31496 5.3149605,5.3149605 0 0 1 -5.31496,-5.31496 5.3149605,5.3149605 0 0 1 5.31496,-5.31496 5.3149605,5.3149605 0 0 1 5.31496,5.31496 z"
         id="circle4914" />
      <path
         style="opacity:1;fill:none;fill-opacity:1;fill-rule:evenodd;stroke:none;stroke-width:1;stroke-linecap:square;stroke-linejoin:miter;stroke-miterlimit:4;stroke-dasharray:none;stroke-dashoffset:0;stroke-opacity:1"
         d="m -627.35521,191.34413 a 5.3149605,5.3149605 0 0 1 -5.31496,5.31496 5.3149605,5.3149605 0 0 1 -5.31496,-5.31496 5.3149605,5.3149605 0 0 1 5.31496,-5.31496 5.3149605,5.3149605 0 0 1 5.31496,5.31496 z"
         id="circle4916" />
    </g>
    <path
       inkscape:connector-curvature="0"
       style="opacity:1;fill:#000000;fill-opacity:1;fill-rule:evenodd;stroke:none;stroke-width:23.99881935;stroke-linecap:square;stroke-linejoin:miter;stroke-miterlimit:4;stroke-dasharray:none;stroke-dashoffset:0;stroke-opacity:1"
       d="m 70.34631,906.42297 0,-26.5742 10.6289,0 0,-35.4336 -10.6289,0 0,-26.5743 -524.41019,0 0,26.5743 -10.629,0 0,35.4336 10.629,0 0,26.5742 524.41019,0 z"
       id="path4918" />
    <g
       id="g6299"
       transform="matrix(0.77162458,0.63607822,0.63607822,-0.77162458,-1763.4977,3495.4992)">
      <path
         transform="scale(1,-1)"
         style="opacity:0.5;fill:#8d8d8d;fill-opacity:1;fill-rule:evenodd;stroke:none;stroke-width:26;stroke-linecap:square;stroke-linejoin:miter;stroke-miterlimit:4;stroke-dasharray:none;stroke-dashoffset:0;stroke-opacity:1"
         d="m -941.12671,-3493.5354 70.86614,0 0,10.6299 -70.86614,0 z"
         id="rect6301" />
      <path
         style="opacity:0.5;fill:#8d8d8d;fill-opacity:1;fill-rule:evenodd;stroke:none;stroke-width:26;stroke-linecap:square;stroke-linejoin:miter;stroke-miterlimit:4;stroke-dasharray:none;stroke-dashoffset:0;stroke-opacity:1"
         d="m -1118.2921,3482.9055 35.4331,0 0,10.6299 -35.4331,0 z"
         id="rect6303" />
    </g>
    <g
       transform="matrix(1,0,0,-1,363.55561,2988.6722)"
       id="g6324">
      <path
         transform="matrix(0.77162458,-0.63607822,-0.63607822,-0.77162458,0,0)"
         style="opacity:0.5;fill:#8d8d8d;fill-opacity:1;fill-rule:evenodd;stroke:none;stroke-width:26;stroke-linecap:square;stroke-linejoin:miter;stroke-miterlimit:4;stroke-dasharray:none;stroke-dashoffset:0;stroke-opacity:1"
         d="m -1895.3027,-2110.7734 70.8661,0 0,10.6299 -70.8661,0 z"
         id="rect6326" />
      <path
         transform="matrix(0.77162458,-0.63607822,-0.63607822,-0.77162458,0,0)"
         style="opacity:0.5;fill:#8d8d8d;fill-opacity:1;fill-rule:evenodd;stroke:none;stroke-width:26;stroke-linecap:square;stroke-linejoin:miter;stroke-miterlimit:4;stroke-dasharray:none;stroke-dashoffset:0;stroke-opacity:1"
         d="m -1998.9167,-2110.7734 35.433,0 0,10.6299 -35.433,0 z"
         id="rect6328" />
    </g>
    <path
       inkscape:connector-curvature="0"
       id="path6613"
       d="m 1210.6051,418.78037 -10.6289,0 0,-70.8653 -524.41018,0 0,70.8653 -10.6289,0 0,35.4335 10.6289,0 0,106.299 -10.6289,0 0,35.4335 10.6289,0 0,35.4335 524.41018,0 0,-35.4334 10.6289,0 0,-35.4336 -10.6289,0 0,-106.2989 10.6289,0 0,-35.4336 z"
       style="opacity:0.5;fill:#8d8d8d;fill-opacity:1;fill-rule:evenodd;stroke:none;stroke-width:26;stroke-linecap:square;stroke-linejoin:miter;stroke-miterlimit:4;stroke-dasharray:none;stroke-dashoffset:0;stroke-opacity:1" />
  </g>
</svg>
