<?xml version="1.0" encoding="UTF-8" standalone="no"?>
<!-- Created with Inkscape (http://www.inkscape.org/) -->

<svg
   xmlns:dc="http://purl.org/dc/elements/1.1/"
   xmlns:cc="http://creativecommons.org/ns#"
   xmlns:rdf="http://www.w3.org/1999/02/22-rdf-syntax-ns#"
   xmlns:svg="http://www.w3.org/2000/svg"
   xmlns="http://www.w3.org/2000/svg"
   xmlns:sodipodi="http://sodipodi.sourceforge.net/DTD/sodipodi-0.dtd"
   xmlns:inkscape="http://www.inkscape.org/namespaces/inkscape"
   width="500mm"
   height="300mm"
   viewBox="0 0 1771.6535 1062.9921"
   id="svg2"
   version="1.1"
   inkscape:version="0.91 r13725"
   sodipodi:docname="b3-box-07-export.svg">
  <defs
     id="defs4">
    <inkscape:path-effect
       effect="spiro"
       id="path-effect4715"
       is_visible="true" />
    <inkscape:path-effect
       effect="spiro"
       id="path-effect4711"
       is_visible="true" />
    <inkscape:path-effect
       effect="spiro"
       id="path-effect4643"
       is_visible="true" />
    <inkscape:path-effect
       effect="spiro"
       id="path-effect4639"
       is_visible="true" />
    <inkscape:path-effect
       is_visible="true"
       id="path-effect4049"
       effect="spiro" />
    <inkscape:path-effect
       is_visible="true"
       id="path-effect4045"
       effect="spiro" />
    <inkscape:path-effect
       effect="spiro"
       id="path-effect3771"
       is_visible="true" />
    <inkscape:path-effect
       effect="spiro"
       id="path-effect3767"
       is_visible="true" />
    <inkscape:path-effect
       effect="spiro"
       id="path-effect4244"
       is_visible="true" />
    <inkscape:path-effect
       effect="spiro"
       id="path-effect4230"
       is_visible="true" />
    <inkscape:path-effect
       is_visible="true"
       id="path-effect4212"
       effect="spiro" />
    <inkscape:path-effect
       effect="spiro"
       id="path-effect4206"
       is_visible="true" />
    <inkscape:path-effect
       effect="spiro"
       id="path-effect4200"
       is_visible="true" />
    <inkscape:path-effect
       is_visible="true"
       id="path-effect4194"
       effect="spiro" />
    <inkscape:path-effect
       effect="spiro"
       id="path-effect4179"
       is_visible="true" />
    <inkscape:path-effect
       is_visible="true"
       id="path-effect4173"
       effect="spiro" />
    <inkscape:path-effect
       is_visible="true"
       id="path-effect4167"
       effect="spiro" />
    <inkscape:path-effect
       effect="spiro"
       id="path-effect4161"
       is_visible="true" />
  </defs>
  <sodipodi:namedview
     id="base"
     pagecolor="#ffffff"
     bordercolor="#666666"
     borderopacity="1.0"
     inkscape:pageopacity="1"
     inkscape:pageshadow="2"
     inkscape:zoom="0.50122667"
     inkscape:cx="466.58377"
     inkscape:cy="457.56739"
     inkscape:document-units="mm"
     inkscape:current-layer="layer1"
     showgrid="false"
     inkscape:window-width="1366"
     inkscape:window-height="719"
     inkscape:window-x="0"
     inkscape:window-y="25"
     inkscape:window-maximized="1"
     inkscape:showpageshadow="false"
     width="500mm"
     showborder="true"
     fit-margin-top="0"
     fit-margin-left="0"
     fit-margin-right="0"
     fit-margin-bottom="0"
     showguides="true"
     inkscape:guide-bbox="true">
    <inkscape:grid
       type="xygrid"
       id="grid3859" />
    <sodipodi:guide
       position="1040.8611,823.07232"
       orientation="0,1"
       id="guide4960" />
    <sodipodi:guide
       position="3540,-2574"
       orientation="0,1"
       id="guide4830" />
  </sodipodi:namedview>
  <metadata
     id="metadata7">
    <rdf:RDF>
      <cc:Work
         rdf:about="">
        <dc:format>image/svg+xml</dc:format>
        <dc:type
           rdf:resource="http://purl.org/dc/dcmitype/StillImage" />
        <dc:title></dc:title>
      </cc:Work>
    </rdf:RDF>
  </metadata>
  <g
     inkscape:label="Calque 1"
     inkscape:groupmode="layer"
     id="layer1"
     transform="translate(1481.2326,-2315.4707)">
    <rect
       transform="matrix(0.77162458,0.63607822,0.63607822,-0.77162458,0,0)"
       style="opacity:0.5;fill:#8d8d8d;fill-opacity:1;fill-rule:evenodd;stroke:none;stroke-width:26;stroke-linecap:square;stroke-linejoin:miter;stroke-miterlimit:4;stroke-dasharray:none;stroke-dashoffset:0;stroke-opacity:1"
       id="rect5828"
       width="35.433071"
       height="10.629921"
       x="872.3656"
       y="-2812.3164" />
    <rect
       transform="matrix(0.77162458,0.63607822,0.63607822,-0.77162458,0,0)"
       y="-2812.3164"
       x="1017.642"
       height="10.629921"
       width="35.433071"
       id="rect5830"
       style="opacity:0.5;fill:#8d8d8d;fill-opacity:1;fill-rule:evenodd;stroke:none;stroke-width:26;stroke-linecap:square;stroke-linejoin:miter;stroke-miterlimit:4;stroke-dasharray:none;stroke-dashoffset:0;stroke-opacity:1" />
    <rect
       y="1217.147"
       x="-2449.2651"
       height="10.629921"
       width="35.433071"
       id="rect5818"
       style="opacity:0.5;fill:#8d8d8d;fill-opacity:1;fill-rule:evenodd;stroke:none;stroke-width:26;stroke-linecap:square;stroke-linejoin:miter;stroke-miterlimit:4;stroke-dasharray:none;stroke-dashoffset:0;stroke-opacity:1"
       transform="matrix(0.77162458,-0.63607822,0.63607822,0.77162458,0,0)" />
    <rect
       style="opacity:0.5;fill:#8d8d8d;fill-opacity:1;fill-rule:evenodd;stroke:none;stroke-width:26;stroke-linecap:square;stroke-linejoin:miter;stroke-miterlimit:4;stroke-dasharray:none;stroke-dashoffset:0;stroke-opacity:1"
       id="rect5820"
       width="35.433071"
       height="10.629921"
       x="-2303.9888"
       y="1217.147"
       transform="matrix(0.77162458,-0.63607822,0.63607822,0.77162458,0,0)" />
    <path
       style="opacity:0.5;fill:#8d8d8d;fill-opacity:1;fill-rule:evenodd;stroke:none;stroke-width:26;stroke-linecap:square;stroke-linejoin:miter;stroke-miterlimit:4;stroke-dasharray:none;stroke-dashoffset:0;stroke-opacity:1"
       inkscape:transform-center-y="27.80317"
       d="m -1189.7726,2511.353 c -62.4861,0 -209.6448,-144.8192 -209.6448,-144.8192 l 419.2896,0 c 0,0 -147.1587,144.8192 -209.6448,144.8192 z"
       id="path5113"
       inkscape:connector-curvature="0"
       sodipodi:nodetypes="zccz" />
    <path
       style="opacity:0.5;fill:#8d8d8d;fill-opacity:1;fill-rule:evenodd;stroke:none;stroke-width:26;stroke-linecap:square;stroke-linejoin:miter;stroke-miterlimit:4;stroke-dasharray:none;stroke-dashoffset:0;stroke-opacity:1"
       d="m 198.40204,2765.353 -10.6308,0 0,-24.8028 -31.8887,0 0,-17.7168 -492.51954,0 0,42.5196 -10.6309,0 0,35.4335 10.6309,0 0,109.8418 -10.6309,0 0,35.4336 10.6309,0 0,27.4883 10.6289,0 0,3.543 10.8359,0 0,10.6289 -10.8359,0 0,22.119 503.15044,0 0,-22.119 -10.836,0 0,-10.6289 10.836,0 0,-3.543 10.6289,0 0,-27.4883 10.6308,0 0,-35.4316 -10.6308,0 0,-109.8438 10.6308,0 0,-35.4335 z"
       id="path5115"
       inkscape:connector-curvature="0" />
    <g
       id="g8577"
       transform="matrix(0,1,-1,0,3346.5629,6300.75)">
      <g
         id="g5173"
         transform="matrix(0,-1,1,0,-6049.8704,5961.1113)">
        <circle
           r="5.8464565"
           style="opacity:1;fill:none;fill-opacity:1;fill-rule:evenodd;stroke:none;stroke-width:1;stroke-linecap:square;stroke-linejoin:miter;stroke-miterlimit:4;stroke-dasharray:none;stroke-dashoffset:0;stroke-opacity:1"
           id="circle5175"
           cx="1422.754"
           cy="3014.5994" />
      </g>
      <path
         id="rect5177"
         transform="translate(-1481.2327,2315.4707)"
         d="m -1571.7559,1950.0508 0,10.6308 -28.3457,0 -10.6289,0 0,35.4317 10.6289,0 0,88.584 -10.6289,0 0,35.4336 10.6289,0 0,364.9589 28.3457,0 0,10.6309 35.4336,0 0,-10.6309 28.3477,0 10.6289,0 0,-35.4316 -10.6289,0 0,-453.5449 10.6289,0 0,-35.4317 -10.6289,0 -28.3477,0 0,-10.6308 -35.4336,0 z"
         style="opacity:0.5;fill:#8d8d8d;fill-opacity:1;fill-rule:evenodd;stroke:none;stroke-width:26;stroke-linecap:square;stroke-linejoin:miter;stroke-miterlimit:4;stroke-dasharray:none;stroke-dashoffset:0;stroke-opacity:1"
         inkscape:connector-curvature="0" />
    </g>
    <g
       id="g8529"
       transform="matrix(0,1,-1,0,3901.8875,5889.2199)">
      <g
         transform="matrix(0,1,1,0,-5769.8706,3115.6033)"
         id="g5188">
        <circle
           cy="3014.5994"
           cx="1422.754"
           id="circle5190"
           style="opacity:1;fill:none;fill-opacity:1;fill-rule:evenodd;stroke:none;stroke-width:1;stroke-linecap:square;stroke-linejoin:miter;stroke-miterlimit:4;stroke-dasharray:none;stroke-dashoffset:0;stroke-opacity:1"
           r="5.8464565" />
      </g>
      <path
         id="rect5193"
         transform="translate(-1481.2327,2315.4707)"
         d="m -1291.7559,1950.0508 0,10.6308 -28.3457,0 -10.6289,0 0,35.4336 10.6289,0 0,88.5821 -10.6289,0 0,35.4336 10.6289,0 0,300.2695 33.3594,0 0,38.166 -33.3594,0 0,26.5254 28.3457,0 0,10.6289 35.4336,0 0,-10.6289 28.3477,0 10.6289,0 0,-35.4336 -10.6289,0 0,-453.543 10.6289,0 0,-35.4336 -10.6289,0 -28.3477,0 0,-10.6308 -35.4336,0 z"
         style="opacity:0.5;fill:#8d8d8d;fill-opacity:1;fill-rule:evenodd;stroke:none;stroke-width:26;stroke-linecap:square;stroke-linejoin:miter;stroke-miterlimit:4;stroke-dasharray:none;stroke-dashoffset:0;stroke-opacity:1"
         inkscape:connector-curvature="0" />
    </g>
    <path
       inkscape:connector-curvature="0"
       style="opacity:0.5;fill:#8d8d8d;fill-opacity:1;fill-rule:evenodd;stroke:none;stroke-width:26;stroke-linecap:square;stroke-linejoin:miter;stroke-miterlimit:4;stroke-dasharray:none;stroke-dashoffset:0;stroke-opacity:1"
       d="m 208.0316,2341.9365 0,10.6308 -28.3457,0 0,35.4336 -10.6289,0 0,88.5821 10.6289,0 0,35.4316 92.127,0 0,-35.4316 10.6289,0 0,-88.5821 -10.6289,0 0,-35.4336 -28.3477,0 0,-10.6308 -35.4336,0 z"
       id="path5234" />
    <g
       inkscape:transform-center-y="26.099516"
       inkscape:transform-center-x="21.996677"
       id="g5256"
       transform="matrix(0.02631094,0.99965381,0.99965381,-0.02631094,-2640.0332,1116.8547)">
      <circle
         style="opacity:1;fill:none;fill-opacity:1;fill-rule:evenodd;stroke:none;stroke-width:1;stroke-linecap:square;stroke-linejoin:miter;stroke-miterlimit:4;stroke-dasharray:none;stroke-dashoffset:0;stroke-opacity:1"
         id="circle5258"
         cx="1393.1138"
         cy="2855.9426"
         r="5.492126" />
      <circle
         r="5.492126"
         cy="2810.9426"
         cx="1443.7832"
         id="circle5260"
         style="opacity:1;fill:none;fill-opacity:1;fill-rule:evenodd;stroke:none;stroke-width:1;stroke-linecap:square;stroke-linejoin:miter;stroke-miterlimit:4;stroke-dasharray:none;stroke-dashoffset:0;stroke-opacity:1" />
    </g>
    <path
       style="opacity:0.5;fill:#8d8d8d;fill-opacity:1;fill-rule:evenodd;stroke:none;stroke-width:26;stroke-linecap:square;stroke-linejoin:miter;stroke-miterlimit:4;stroke-dasharray:none;stroke-dashoffset:0;stroke-opacity:1"
       d="M 18.625 22.716797 L 18.625 568.38477 L 564.29492 568.38477 L 564.29492 22.716797 L 18.625 22.716797 z M 53.232422 84.435547 A 24.759842 24.759842 0 0 1 77.904297 107.22852 C 82.722382 110.7938 87.908823 114.73496 93.380859 119.0625 L 93.380859 167.98242 A 35.433071 35.433071 0 0 1 96.923828 183.36133 A 35.433071 35.433071 0 0 1 93.380859 198.70312 L 93.380859 472.04883 C 67.145797 492.79732 46.957031 505.19531 46.957031 505.19531 L 46.957031 215.64062 A 35.433071 35.433071 0 0 1 26.058594 183.36133 A 35.433071 35.433071 0 0 1 46.957031 151.09375 L 46.957031 133.11523 A 24.759842 24.759842 0 0 1 28.472656 109.19531 A 24.759842 24.759842 0 0 1 53.232422 84.435547 z M 125.27148 146.23047 C 167.79474 185.42641 211.77539 239.51026 211.77539 295.55078 C 211.77539 339.04758 185.27986 381.36774 153.53516 416.46094 C 144.38062 426.58109 134.7895 436.09205 125.27148 444.86523 L 125.27148 146.23047 z "
       transform="translate(-1481.2327,2315.4707)"
       id="rect5279" />
    <rect
       transform="scale(-1,-1)"
       style="opacity:1;fill:none;fill-opacity:1;fill-rule:evenodd;stroke:none;stroke-width:5;stroke-linecap:square;stroke-linejoin:miter;stroke-miterlimit:4;stroke-dasharray:none;stroke-dashoffset:0;stroke-opacity:1"
       id="rect5283"
       width="35.433071"
       height="10.629921"
       x="1172.0557"
       y="-2665.9424" />
    <circle
       r="26.574802"
       cy="2611.0205"
       cx="-1189.7725"
       id="circle5285"
       style="opacity:1;fill:#000000;fill-opacity:1;fill-rule:evenodd;stroke:none;stroke-width:23.99881935;stroke-linecap:square;stroke-linejoin:miter;stroke-miterlimit:4;stroke-dasharray:none;stroke-dashoffset:0;stroke-opacity:1" />
    <rect
       y="-2566.73"
       x="1172.0557"
       height="10.629921"
       width="35.433071"
       id="rect5287"
       style="opacity:1;fill:none;fill-opacity:1;fill-rule:evenodd;stroke:none;stroke-width:5;stroke-linecap:square;stroke-linejoin:miter;stroke-miterlimit:4;stroke-dasharray:none;stroke-dashoffset:0;stroke-opacity:1"
       transform="scale(-1,-1)" />
    <path
       sodipodi:nodetypes="zccz"
       inkscape:connector-curvature="0"
       id="path5289"
       d="m -1189.7726,2710.6909 c -62.4861,0 -209.6448,144.8192 -209.6448,144.8192 l 419.2896,0 c 0,0 -147.1587,-144.8192 -209.6448,-144.8192 z"
       inkscape:transform-center-y="-27.80317"
       style="opacity:0.5;fill:#8d8d8d;fill-opacity:1;fill-rule:evenodd;stroke:none;stroke-width:26;stroke-linecap:square;stroke-linejoin:miter;stroke-miterlimit:4;stroke-dasharray:none;stroke-dashoffset:0;stroke-opacity:1" />
    <path
       style="opacity:0.5;fill:#8d8d8d;fill-opacity:1;fill-rule:evenodd;stroke:none;stroke-width:26;stroke-linecap:square;stroke-linejoin:miter;stroke-miterlimit:4;stroke-dasharray:none;stroke-dashoffset:0;stroke-opacity:1"
       inkscape:transform-center-y="-27.80317"
       d="m -1110.1037,2611.022 c 0,134.4861 164.8193,209.6448 164.8193,209.6448 l 0,-419.2896 c 0,0 -164.8193,75.1587 -164.8193,209.6448 z"
       id="path5291"
       inkscape:connector-curvature="0"
       sodipodi:nodetypes="zccz" />
    <g
       id="g5304"
       transform="translate(-705.5652,266.68801)">
      <circle
         r="5.3149605"
         cy="2098.074"
         cx="-730.46716"
         id="circle5306"
         style="opacity:1;fill:#000000;fill-opacity:1;fill-rule:evenodd;stroke:none;stroke-width:23.99881935;stroke-linecap:square;stroke-linejoin:miter;stroke-miterlimit:4;stroke-dasharray:none;stroke-dashoffset:0;stroke-opacity:1" />
    </g>
    <circle
       style="opacity:1;fill:#000000;fill-opacity:1;fill-rule:evenodd;stroke:none;stroke-width:23.99881935;stroke-linecap:square;stroke-linejoin:miter;stroke-miterlimit:4;stroke-dasharray:none;stroke-dashoffset:0;stroke-opacity:1"
       id="circle5308"
       cx="-943.5127"
       cy="2857.2812"
       r="5.3149605" />
    <circle
       r="5.3149605"
       cy="2857.2812"
       cx="-1436.0322"
       id="circle5310"
       style="opacity:1;fill:#000000;fill-opacity:1;fill-rule:evenodd;stroke:none;stroke-width:23.99881935;stroke-linecap:square;stroke-linejoin:miter;stroke-miterlimit:4;stroke-dasharray:none;stroke-dashoffset:0;stroke-opacity:1" />
    <circle
       r="5.3149605"
       cy="2364.7612"
       cx="-943.5127"
       id="circle5312"
       style="opacity:1;fill:#000000;fill-opacity:1;fill-rule:evenodd;stroke:none;stroke-width:23.99881935;stroke-linecap:square;stroke-linejoin:miter;stroke-miterlimit:4;stroke-dasharray:none;stroke-dashoffset:0;stroke-opacity:1" />
    <g
       id="g8510"
       transform="translate(2539.7691,-432.93786)">
      <circle
         r="5.3149605"
         cy="3461.958"
         cx="-3178.1621"
         id="circle5472"
         style="opacity:0.5;fill:#8d8d8d;fill-opacity:1;fill-rule:evenodd;stroke:none;stroke-width:26;stroke-linecap:square;stroke-linejoin:miter;stroke-miterlimit:4;stroke-dasharray:none;stroke-dashoffset:0;stroke-opacity:1" />
      <path
         id="rect5470"
         transform="translate(-1481.2327,2315.4707)"
         d="m -1874.4746,1108.6191 -66.6602,0.1524 0,28.8574 -10.6289,0 0,17.7168 10.6289,0 0,8.8594 524.4102,0 0,-8.8594 10.6289,0 0,-17.7168 -10.6289,0 0,-6.8574 -457.7402,0 -0.01,-22.1524 z"
         style="opacity:1;fill:none;fill-opacity:1;fill-rule:evenodd;stroke:none;stroke-width:5;stroke-linecap:square;stroke-linejoin:miter;stroke-miterlimit:4;stroke-dasharray:none;stroke-dashoffset:0;stroke-opacity:1"
         inkscape:connector-curvature="0" />
      <circle
         style="opacity:0.5;fill:#8d8d8d;fill-opacity:1;fill-rule:evenodd;stroke:none;stroke-width:26;stroke-linecap:square;stroke-linejoin:miter;stroke-miterlimit:4;stroke-dasharray:none;stroke-dashoffset:0;stroke-opacity:1"
         id="circle5478"
         cx="-3352.1621"
         cy="3461.958"
         r="5.3149605" />
    </g>
    <g
       id="g8484"
       transform="matrix(0,1,-1,0,3201.8291,6170.377)">
      <path
         id="rect5495"
         transform="translate(-1481.2327,2315.4707)"
         d="m -1941.1348,615.29102 0,14.85937 -10.6289,0 0,17.71484 10.6289,0 0,8.85938 0,17.7168 59,0 0,-17.7168 345.5059,0 0,-7.5 39.3457,0 0,7.5 80.5586,0 0,-8.85938 10.6289,0 0,-17.71484 -10.6289,0 0,-14.85937 -15.5703,0 0,14.80859 -44.2461,0 0,-14.80859 -382.1309,0 0,15.42773 -70,0 0,-15.42773 -12.4629,0 z"
         style="opacity:1;fill:none;fill-opacity:1;fill-rule:evenodd;stroke:none;stroke-width:5;stroke-linecap:square;stroke-linejoin:miter;stroke-miterlimit:4;stroke-dasharray:none;stroke-dashoffset:0;stroke-opacity:1"
         inkscape:connector-curvature="0" />
      <circle
         r="5.3149605"
         cy="-2954.4783"
         cx="3028.1624"
         id="circle5543"
         style="opacity:0.5;fill:#8d8d8d;fill-opacity:1;fill-rule:evenodd;stroke:none;stroke-width:26;stroke-linecap:square;stroke-linejoin:miter;stroke-miterlimit:4;stroke-dasharray:none;stroke-dashoffset:0;stroke-opacity:1"
         transform="scale(-1,-1)" />
      <circle
         transform="scale(-1,1)"
         style="opacity:0.5;fill:#8d8d8d;fill-opacity:1;fill-rule:evenodd;stroke:none;stroke-width:26;stroke-linecap:square;stroke-linejoin:miter;stroke-miterlimit:4;stroke-dasharray:none;stroke-dashoffset:0;stroke-opacity:1"
         id="circle5547"
         cx="3154.1621"
         cy="2954.478"
         r="5.3149605" />
    </g>
    <rect
       style="opacity:0.5;fill:#8d8d8d;fill-opacity:1;fill-rule:evenodd;stroke:none;stroke-width:26;stroke-linecap:square;stroke-linejoin:miter;stroke-miterlimit:4;stroke-dasharray:none;stroke-dashoffset:0;stroke-opacity:1"
       id="rect5553"
       width="17.716536"
       height="10.629921"
       x="2433.6013"
       y="-1377.2211"
       transform="matrix(0,1,1,0,0,0)" />
    <g
       id="g8521"
       transform="translate(3194.1637,-498.77634)">
      <circle
         cy="3132.2246"
         cx="-2968.9785"
         id="circle5664"
         style="opacity:1;fill:#000000;fill-opacity:1;fill-rule:evenodd;stroke:none;stroke-width:23.99881935;stroke-linecap:square;stroke-linejoin:miter;stroke-miterlimit:4;stroke-dasharray:none;stroke-dashoffset:0;stroke-opacity:1"
         r="33.661419" />
      <path
         inkscape:connector-curvature="0"
         id="rect5668"
         d="m -2977.2389,3023.7998 a 34.259842,34.259842 0 0 0 -34.2597,34.2598 34.259842,34.259842 0 0 0 0.053,1.5117 l -0.053,0 0,141.7304 74.4101,0 10.6289,0 0,-17.7148 -10.6289,0 0,-109.4668 10.6289,0 0,-17.7148 -10.6289,0 0,3.166 -5.9648,0 a 34.259842,34.259842 0 0 0 0.074,-1.5117 34.259842,34.259842 0 0 0 -34.2598,-34.2598 z"
         style="opacity:0.5;fill:#8d8d8d;fill-opacity:1;fill-rule:evenodd;stroke:none;stroke-width:26;stroke-linecap:square;stroke-linejoin:miter;stroke-miterlimit:4;stroke-dasharray:none;stroke-dashoffset:0;stroke-opacity:1" />
      <circle
         cy="3058.0591"
         cx="-2977.2385"
         id="circle5666"
         style="opacity:1;fill:#000000;fill-opacity:1;fill-rule:evenodd;stroke:none;stroke-width:23.99881935;stroke-linecap:square;stroke-linejoin:miter;stroke-miterlimit:4;stroke-dasharray:none;stroke-dashoffset:0;stroke-opacity:1"
         r="14.173228" />
    </g>
    <g
       id="g8610"
       transform="matrix(0,1,-1,0,2738.0095,6339.5769)">
      <path
         id="rect5686"
         transform="translate(-1481.2327,2315.4707)"
         d="m -1872.3418,1339.4766 0,10.6308 -51.2598,0 0,10.6289 -3.5429,0 0,10.836 -10.6289,0 0,-10.836 -22.1192,0 0,503.1504 22.1192,0 0,-10.8359 10.6289,0 0,10.8359 3.5429,0 0,10.6289 51.2598,0 0,10.6309 35.4316,0 0,-10.6309 46.5118,0 0,10.6309 70.8652,0 0,-10.6309 46.6484,0 0,-26.5254 -17.6406,0 0,-38.164 17.6406,0 0,-459.7188 -32.1844,0 0,-10.6308 -99.7937,0 0,10.6308 -32.0473,0 0,-10.6308 z"
         style="opacity:0.5;fill:#8d8d8d;fill-opacity:1;fill-rule:evenodd;stroke:none;stroke-width:26;stroke-linecap:square;stroke-linejoin:miter;stroke-miterlimit:4;stroke-dasharray:none;stroke-dashoffset:0;stroke-opacity:1"
         inkscape:connector-curvature="0"
         sodipodi:nodetypes="ccccccccccccccccccccccccccccccccccccc" />
      <rect
         style="opacity:0.5;fill:#8d8d8d;fill-opacity:1;fill-rule:evenodd;stroke:none;stroke-width:26;stroke-linecap:square;stroke-linejoin:miter;stroke-miterlimit:4;stroke-dasharray:none;stroke-dashoffset:0;stroke-opacity:1"
         id="rect5695"
         width="56.348717"
         height="455.5676"
         x="-3264.3733"
         y="3670.5269" />
      <rect
         transform="matrix(-0.77162458,0.63607822,-0.63607822,-0.77162458,0,0)"
         y="-877.95685"
         x="5334.6196"
         height="99.795166"
         width="10.629921"
         id="rect9339"
         style="opacity:0.5;fill:#7e7e7e;fill-opacity:1;fill-rule:evenodd;stroke:none;stroke-width:7.08661413;stroke-linecap:round;stroke-linejoin:miter;stroke-miterlimit:4;stroke-dasharray:none;stroke-dashoffset:0;stroke-opacity:1" />
      <rect
         style="opacity:0.5;fill:#ff0000;fill-opacity:1;fill-rule:evenodd;stroke:none;stroke-width:7.08661413;stroke-linecap:round;stroke-linejoin:miter;stroke-miterlimit:4;stroke-dasharray:none;stroke-dashoffset:0;stroke-opacity:1"
         id="rect9342"
         width="35.433071"
         height="10.629921"
         x="-5538.876"
         y="-419.49255"
         transform="matrix(0.63607822,-0.77162458,0.77162458,0.63607822,0,0)" />
    </g>
    <path
       style="opacity:0.5;fill:#8d8d8d;fill-opacity:1;fill-rule:evenodd;stroke:none;stroke-width:26;stroke-linecap:square;stroke-linejoin:miter;stroke-miterlimit:4;stroke-dasharray:none;stroke-dashoffset:0;stroke-opacity:1"
       d="m -906.88784,2949.3719 10.6308,0 0,2.7396 459.8086,0 0,46.8457 64.5995,0 0,-14.1582 10.6309,0 0,-70.8672 -10.6309,0 0,-14.1562 -468.4785,0 0,17.7168 -55.9297,0 0,-3.5606 -10.6308,0 0,35.4401 z"
       id="rect5729"
       inkscape:connector-curvature="0"
       sodipodi:nodetypes="cccccccccccccccccc" />
    <path
       style="opacity:0.5;fill:#8d8d8d;fill-opacity:1;fill-rule:evenodd;stroke:none;stroke-width:26;stroke-linecap:square;stroke-linejoin:miter;stroke-miterlimit:4;stroke-dasharray:none;stroke-dashoffset:0;stroke-opacity:1"
       d="m -349.15165,3314.4903 -8.5938,10.4257 -13.8808,0.07 -0.027,7.2617 13.0195,0 0,1.9238 9.3887,-5.4219 9.457,5.461 0,10.9199 -9.457,5.4609 -9.457,-5.4609 0,-1.3692 -12.9727,0 0.066,8.8184 12.9961,0.031 14.2637,11.7578 22.5371,-27.3418 -27.3398,-22.5371 z"
       id="path5786"
       inkscape:connector-curvature="0" />
    <rect
       transform="matrix(0,-1,1,0,0,0)"
       style="opacity:1;fill:none;fill-opacity:1;fill-rule:evenodd;stroke:none;stroke-width:5;stroke-linecap:square;stroke-linejoin:miter;stroke-miterlimit:4;stroke-dasharray:none;stroke-dashoffset:0;stroke-opacity:1"
       id="rect5870"
       width="35.433071"
       height="10.629921"
       x="-2628.7378"
       y="-1143.71" />
    <rect
       y="-1246.4653"
       x="-2628.7378"
       height="10.629921"
       width="35.433071"
       id="rect5872"
       style="opacity:1;fill:none;fill-opacity:1;fill-rule:evenodd;stroke:none;stroke-width:5;stroke-linecap:square;stroke-linejoin:miter;stroke-miterlimit:4;stroke-dasharray:none;stroke-dashoffset:0;stroke-opacity:1"
       transform="matrix(0,-1,1,0,0,0)" />
    <rect
       transform="matrix(-0.77162458,0.63607822,-0.63607822,-0.77162458,0,0)"
       y="-1298.7417"
       x="2829.7539"
       height="10.629921"
       width="35.433071"
       id="rect5465"
       style="opacity:0.5;fill:#8d8d8d;fill-opacity:1;fill-rule:evenodd;stroke:none;stroke-width:26;stroke-linecap:square;stroke-linejoin:miter;stroke-miterlimit:4;stroke-dasharray:none;stroke-dashoffset:0;stroke-opacity:1" />
    <rect
       transform="matrix(0,1,1,0,0,0)"
       y="-1377.2211"
       x="2765.1001"
       height="10.629921"
       width="17.716536"
       id="rect5485"
       style="opacity:0.5;fill:#8d8d8d;fill-opacity:1;fill-rule:evenodd;stroke:none;stroke-width:26;stroke-linecap:square;stroke-linejoin:miter;stroke-miterlimit:4;stroke-dasharray:none;stroke-dashoffset:0;stroke-opacity:1" />
    <g
       id="g8489"
       transform="translate(3068.0117,-685.89648)">
      <path
         sodipodi:nodetypes="ccccccccccccc"
         inkscape:connector-curvature="0"
         id="rect5435"
         d="m -1934.0469,708.61328 0,218.05664 88.2578,0 0,91.74608 -31.9238,0 0,6.8028 -32,0 0,-6.8028 -24.334,0 0,65.7871 510.2364,0 0,-375.58982 z"
         style="opacity:1;fill:none;fill-opacity:1;fill-rule:evenodd;stroke:none;stroke-width:5;stroke-linecap:square;stroke-linejoin:miter;stroke-miterlimit:4;stroke-dasharray:none;stroke-dashoffset:0;stroke-opacity:1"
         transform="translate(-1481.2327,2315.4707)" />
      <circle
         r="5.3149605"
         cy="3232.501"
         cx="-3401.6987"
         id="circle5416"
         style="opacity:0.5;fill:#8d8d8d;fill-opacity:1;fill-rule:evenodd;stroke:none;stroke-width:26;stroke-linecap:square;stroke-linejoin:miter;stroke-miterlimit:4;stroke-dasharray:none;stroke-dashoffset:0;stroke-opacity:1" />
      <circle
         transform="scale(-1,1)"
         style="opacity:0.5;fill:#8d8d8d;fill-opacity:1;fill-rule:evenodd;stroke:none;stroke-width:26;stroke-linecap:square;stroke-linejoin:miter;stroke-miterlimit:4;stroke-dasharray:none;stroke-dashoffset:0;stroke-opacity:1"
         id="circle5418"
         cx="3185.5566"
         cy="3232.501"
         r="5.3149605" />
      <circle
         transform="scale(-1,-1)"
         style="opacity:0.5;fill:#8d8d8d;fill-opacity:1;fill-rule:evenodd;stroke:none;stroke-width:26;stroke-linecap:square;stroke-linejoin:miter;stroke-miterlimit:4;stroke-dasharray:none;stroke-dashoffset:0;stroke-opacity:1"
         id="circle5429"
         cx="2957.2449"
         cy="-3371.7205"
         r="5.3149605" />
      <circle
         r="6.2007875"
         transform="scale(-1,-1)"
         style="opacity:0.5;fill:#8d8d8d;fill-opacity:1;fill-rule:evenodd;stroke:none;stroke-width:26;stroke-linecap:square;stroke-linejoin:miter;stroke-miterlimit:4;stroke-dasharray:none;stroke-dashoffset:0;stroke-opacity:1"
         id="circle5431"
         cx="3139.7253"
         cy="-3252.5403" />
      <circle
         cy="-3355.2966"
         cx="3139.7253"
         id="circle5433"
         style="opacity:0.5;fill:#8d8d8d;fill-opacity:1;fill-rule:evenodd;stroke:none;stroke-width:26;stroke-linecap:square;stroke-linejoin:miter;stroke-miterlimit:4;stroke-dasharray:none;stroke-dashoffset:0;stroke-opacity:1"
         transform="scale(-1,-1)"
         r="6.2007875" />
      <rect
         y="3031.0107"
         x="-2947.9053"
         height="17.716536"
         width="10.629921"
         id="rect5441"
         style="opacity:1;fill:none;fill-opacity:1;fill-rule:evenodd;stroke:none;stroke-width:5;stroke-linecap:square;stroke-linejoin:miter;stroke-miterlimit:4;stroke-dasharray:none;stroke-dashoffset:0;stroke-opacity:1" />
      <rect
         style="opacity:1;fill:none;fill-opacity:1;fill-rule:evenodd;stroke:none;stroke-width:5;stroke-linecap:square;stroke-linejoin:miter;stroke-miterlimit:4;stroke-dasharray:none;stroke-dashoffset:0;stroke-opacity:1"
         id="rect5443"
         width="10.629921"
         height="17.716536"
         x="-2947.9053"
         y="3158.1924" />
      <path
         style="opacity:0.5;fill:none;fill-opacity:1;fill-rule:evenodd;stroke:none;stroke-width:7.08661413;stroke-linecap:round;stroke-linejoin:miter;stroke-miterlimit:4;stroke-dasharray:none;stroke-dashoffset:0;stroke-opacity:1"
         d="m -871.47656,363.67773 0,36.49024 -80.90039,0 0,12.05859 80.90039,0 0,36.49024 17.71679,0 0,-85.03907 -17.71679,0 z"
         transform="translate(-2065.7985,2700.526)"
         id="rect5445"
         inkscape:connector-curvature="0" />
      <circle
         transform="scale(1,-1)"
         style="opacity:0.5;fill:#8d8d8d;fill-opacity:1;fill-rule:evenodd;stroke:none;stroke-width:26;stroke-linecap:square;stroke-linejoin:miter;stroke-miterlimit:4;stroke-dasharray:none;stroke-dashoffset:0;stroke-opacity:1"
         id="circle5459"
         cx="-3178.1621"
         cy="-3381.9587"
         r="5.3149605" />
      <circle
         transform="scale(1,-1)"
         style="opacity:0.5;fill:#8d8d8d;fill-opacity:1;fill-rule:evenodd;stroke:none;stroke-width:26;stroke-linecap:square;stroke-linejoin:miter;stroke-miterlimit:4;stroke-dasharray:none;stroke-dashoffset:0;stroke-opacity:1"
         id="circle5466"
         cx="-3352.1621"
         cy="-3381.958"
         r="5.3149605" />
      <circle
         r="5.3149605"
         cy="3050.4597"
         cx="3154.1621"
         id="circle5515"
         style="opacity:0.5;fill:#8d8d8d;fill-opacity:1;fill-rule:evenodd;stroke:none;stroke-width:26;stroke-linecap:square;stroke-linejoin:miter;stroke-miterlimit:4;stroke-dasharray:none;stroke-dashoffset:0;stroke-opacity:1"
         transform="scale(-1,1)" />
      <circle
         transform="scale(-1,-1)"
         style="opacity:0.5;fill:#8d8d8d;fill-opacity:1;fill-rule:evenodd;stroke:none;stroke-width:26;stroke-linecap:square;stroke-linejoin:miter;stroke-miterlimit:4;stroke-dasharray:none;stroke-dashoffset:0;stroke-opacity:1"
         id="circle5521"
         cx="3028.1624"
         cy="-3050.4592"
         r="5.3149605" />
      <rect
         y="3080.1477"
         x="-3333.8604"
         height="276.37796"
         width="212.59842"
         id="rect5437"
         style="opacity:1;fill:none;fill-opacity:1;fill-rule:evenodd;stroke:none;stroke-width:5;stroke-linecap:square;stroke-linejoin:miter;stroke-miterlimit:4;stroke-dasharray:none;stroke-dashoffset:0;stroke-opacity:1" />
      <rect
         style="opacity:1;fill:none;fill-opacity:1;fill-rule:evenodd;stroke:none;stroke-width:5;stroke-linecap:square;stroke-linejoin:miter;stroke-miterlimit:4;stroke-dasharray:none;stroke-dashoffset:0;stroke-opacity:1"
         id="rect5439"
         width="212.59842"
         height="276.37796"
         x="-3121.2617"
         y="3080.1477" />
      <circle
         cy="-3118.238"
         cx="3083.1709"
         id="circle5528"
         style="opacity:0.5;fill:#8d8d8d;fill-opacity:1;fill-rule:evenodd;stroke:none;stroke-width:26;stroke-linecap:square;stroke-linejoin:miter;stroke-miterlimit:4;stroke-dasharray:none;stroke-dashoffset:0;stroke-opacity:1"
         transform="scale(-1,-1)"
         r="6.2007875" />
      <circle
         r="6.2007875"
         transform="scale(-1,1)"
         style="opacity:0.5;fill:#8d8d8d;fill-opacity:1;fill-rule:evenodd;stroke:none;stroke-width:26;stroke-linecap:square;stroke-linejoin:miter;stroke-miterlimit:4;stroke-dasharray:none;stroke-dashoffset:0;stroke-opacity:1"
         id="circle5535"
         cx="3295.7695"
         cy="3318.4358" />
      <rect
         style="opacity:0.5;fill:none;fill-opacity:1;fill-rule:evenodd;stroke:none;stroke-width:7.08661413;stroke-linecap:round;stroke-linejoin:miter;stroke-miterlimit:4;stroke-dasharray:none;stroke-dashoffset:0;stroke-opacity:1"
         id="rect5683"
         width="28.346457"
         height="17.716536"
         x="-3012.3623"
         y="3062.4312" />
    </g>
    <g
       id="g8569"
       transform="matrix(0,1,-1,0,3901.5361,6164.8978)">
      <g
         transform="matrix(0,-1,1,0,-5913.8704,5961.1113)"
         id="g5162">
        <circle
           cy="3014.5994"
           cx="1422.754"
           id="circle5164"
           style="opacity:1;fill:none;fill-opacity:1;fill-rule:evenodd;stroke:none;stroke-width:1;stroke-linecap:square;stroke-linejoin:miter;stroke-miterlimit:4;stroke-dasharray:none;stroke-dashoffset:0;stroke-opacity:1"
           r="5.8464565" />
      </g>
      <path
         id="rect5167"
         transform="translate(-1481.2327,2315.4707)"
         d="m -1435.7559,1950.0527 0,10.6289 -28.3457,0 0,35.4336 -10.6289,0 0,453.543 10.6289,0 0,35.4316 28.3477,0 0,10.6309 35.4316,0 0,-10.6309 28.3477,0 0,-35.4316 10.6289,0 0,-453.543 -10.6289,0 0,-35.4336 -28.3477,0 0,-10.6289 -35.4336,0 z"
         style="opacity:0.5;fill:#8d8d8d;fill-opacity:1;fill-rule:evenodd;stroke:none;stroke-width:26;stroke-linecap:square;stroke-linejoin:miter;stroke-miterlimit:4;stroke-dasharray:none;stroke-dashoffset:0;stroke-opacity:1"
         inkscape:connector-curvature="0" />
      <g
         transform="matrix(0.02631094,-0.99965381,0.99965381,0.02631094,-5773.0534,6035.6871)"
         id="g5747"
         inkscape:transform-center-x="21.996677"
         inkscape:transform-center-y="-26.099527">
        <circle
           r="5.492126"
           cy="2855.9426"
           cx="1393.1138"
           id="circle5749"
           style="opacity:1;fill:none;fill-opacity:1;fill-rule:evenodd;stroke:none;stroke-width:1;stroke-linecap:square;stroke-linejoin:miter;stroke-miterlimit:4;stroke-dasharray:none;stroke-dashoffset:0;stroke-opacity:1" />
        <circle
           style="opacity:1;fill:none;fill-opacity:1;fill-rule:evenodd;stroke:none;stroke-width:1;stroke-linecap:square;stroke-linejoin:miter;stroke-miterlimit:4;stroke-dasharray:none;stroke-dashoffset:0;stroke-opacity:1"
           id="circle5751"
           cx="1443.7832"
           cy="2810.9426"
           r="5.492126" />
      </g>
    </g>
    <rect
       y="-2457.595"
       x="1302.6772"
       height="10.629921"
       width="35.433071"
       id="rect5846"
       style="opacity:0.5;fill:#8d8d8d;fill-opacity:1;fill-rule:evenodd;stroke:none;stroke-width:26;stroke-linecap:square;stroke-linejoin:miter;stroke-miterlimit:4;stroke-dasharray:none;stroke-dashoffset:0;stroke-opacity:1"
       transform="matrix(0.77162458,0.63607822,0.63607822,-0.77162458,0,0)" />
    <rect
       style="opacity:0.5;fill:#8d8d8d;fill-opacity:1;fill-rule:evenodd;stroke:none;stroke-width:26;stroke-linecap:square;stroke-linejoin:miter;stroke-miterlimit:4;stroke-dasharray:none;stroke-dashoffset:0;stroke-opacity:1"
       id="rect5849"
       width="35.433071"
       height="10.629921"
       x="1447.9536"
       y="-2457.595"
       transform="matrix(0.77162458,0.63607822,0.63607822,-0.77162458,0,0)" />
    <rect
       transform="matrix(0.77162458,-0.63607822,0.63607822,0.77162458,0,0)"
       style="opacity:0.5;fill:#8d8d8d;fill-opacity:1;fill-rule:evenodd;stroke:none;stroke-width:26;stroke-linecap:square;stroke-linejoin:miter;stroke-miterlimit:4;stroke-dasharray:none;stroke-dashoffset:0;stroke-opacity:1"
       id="rect5859"
       width="35.433071"
       height="10.629921"
       x="-2018.9535"
       y="1571.8721" />
    <rect
       transform="matrix(0.77162458,-0.63607822,0.63607822,0.77162458,0,0)"
       y="1571.8721"
       x="-1873.6771"
       height="10.629921"
       width="35.433071"
       id="rect5861"
       style="opacity:0.5;fill:#8d8d8d;fill-opacity:1;fill-rule:evenodd;stroke:none;stroke-width:26;stroke-linecap:square;stroke-linejoin:miter;stroke-miterlimit:4;stroke-dasharray:none;stroke-dashoffset:0;stroke-opacity:1" />
    <path
       sodipodi:nodetypes="zccz"
       inkscape:connector-curvature="0"
       id="path5863"
       d="m -632.103,2511.3532 c -62.4861,0 -209.6448,-144.8192 -209.6448,-144.8192 l 419.2896,0 c 0,0 -147.1587,144.8192 -209.6448,144.8192 z"
       inkscape:transform-center-y="27.80317"
       style="opacity:0.5;fill:#8d8d8d;fill-opacity:1;fill-rule:evenodd;stroke:none;stroke-width:26;stroke-linecap:square;stroke-linejoin:miter;stroke-miterlimit:4;stroke-dasharray:none;stroke-dashoffset:0;stroke-opacity:1" />
    <path
       style="opacity:0.5;fill:#8d8d8d;fill-opacity:1;fill-rule:evenodd;stroke:none;stroke-width:26;stroke-linecap:square;stroke-linejoin:miter;stroke-miterlimit:4;stroke-dasharray:none;stroke-dashoffset:0;stroke-opacity:1"
       d="M 576.29492 22.716797 L 576.29492 568.38477 L 1121.9648 568.38477 L 1121.9648 22.716797 L 576.29492 22.716797 z M 604.625 85.90625 C 604.625 85.90625 624.81938 98.319497 651.05078 119.06445 L 651.05078 472.04688 C 624.81429 492.79676 604.625 505.19727 604.625 505.19727 L 604.625 85.90625 z M 682.29688 145.64258 C 725.01958 184.88503 769.44531 239.22702 769.44531 295.55078 C 769.44531 299.96185 769.15953 304.35968 768.63672 308.74023 L 682.29688 308.74023 L 682.29688 145.64258 z M 682.29688 402.62891 L 723.10156 402.62891 C 719.25156 407.34942 715.27208 411.96494 711.20508 416.46094 C 701.84357 426.80988 692.02655 436.51799 682.29688 445.45508 L 682.29688 402.62891 z "
       transform="translate(-1481.2327,2315.4707)"
       id="rect5867" />
    <rect
       y="-2665.9426"
       x="614.38593"
       height="10.629921"
       width="35.433071"
       id="rect5871"
       style="opacity:1;fill:none;fill-opacity:1;fill-rule:evenodd;stroke:none;stroke-width:5;stroke-linecap:square;stroke-linejoin:miter;stroke-miterlimit:4;stroke-dasharray:none;stroke-dashoffset:0;stroke-opacity:1"
       transform="scale(-1,-1)" />
    <circle
       style="opacity:1;fill:#000000;fill-opacity:1;fill-rule:evenodd;stroke:none;stroke-width:23.99881935;stroke-linecap:square;stroke-linejoin:miter;stroke-miterlimit:4;stroke-dasharray:none;stroke-dashoffset:0;stroke-opacity:1"
       id="circle5873"
       cx="-632.10272"
       cy="2611.0208"
       r="26.574802" />
    <rect
       transform="scale(-1,-1)"
       style="opacity:1;fill:none;fill-opacity:1;fill-rule:evenodd;stroke:none;stroke-width:5;stroke-linecap:square;stroke-linejoin:miter;stroke-miterlimit:4;stroke-dasharray:none;stroke-dashoffset:0;stroke-opacity:1"
       id="rect5875"
       width="35.433071"
       height="10.629921"
       x="614.38593"
       y="-2566.7302" />
    <path
       style="opacity:0.5;fill:#8d8d8d;fill-opacity:1;fill-rule:evenodd;stroke:none;stroke-width:26;stroke-linecap:square;stroke-linejoin:miter;stroke-miterlimit:4;stroke-dasharray:none;stroke-dashoffset:0;stroke-opacity:1"
       inkscape:transform-center-y="-27.80317"
       d="m -632.103,2710.6911 c -62.4861,0 -209.6448,144.8192 -209.6448,144.8192 l 419.2896,0 c 0,0 -147.1587,-144.8192 -209.6448,-144.8192 z"
       id="path5877"
       inkscape:connector-curvature="0"
       sodipodi:nodetypes="zccz" />
    <path
       sodipodi:nodetypes="zccz"
       inkscape:connector-curvature="0"
       id="path5879"
       d="m -552.4341,2611.0222 c 0,134.4861 164.8193,209.6448 164.8193,209.6448 l 0,-419.2896 c 0,0 -164.8193,75.1587 -164.8193,209.6448 z"
       inkscape:transform-center-y="-27.80317"
       style="opacity:0.5;fill:#8d8d8d;fill-opacity:1;fill-rule:evenodd;stroke:none;stroke-width:26;stroke-linecap:square;stroke-linejoin:miter;stroke-miterlimit:4;stroke-dasharray:none;stroke-dashoffset:0;stroke-opacity:1" />
    <g
       transform="translate(-147.8956,266.68825)"
       id="g5883">
      <circle
         style="opacity:1;fill:#000000;fill-opacity:1;fill-rule:evenodd;stroke:none;stroke-width:23.99881935;stroke-linecap:square;stroke-linejoin:miter;stroke-miterlimit:4;stroke-dasharray:none;stroke-dashoffset:0;stroke-opacity:1"
         id="circle5885"
         cx="-730.46716"
         cy="2098.074"
         r="5.3149605" />
    </g>
    <circle
       r="5.3149605"
       cy="2857.2815"
       cx="-385.84299"
       id="circle5887"
       style="opacity:1;fill:#000000;fill-opacity:1;fill-rule:evenodd;stroke:none;stroke-width:23.99881935;stroke-linecap:square;stroke-linejoin:miter;stroke-miterlimit:4;stroke-dasharray:none;stroke-dashoffset:0;stroke-opacity:1" />
    <circle
       style="opacity:1;fill:#000000;fill-opacity:1;fill-rule:evenodd;stroke:none;stroke-width:23.99881935;stroke-linecap:square;stroke-linejoin:miter;stroke-miterlimit:4;stroke-dasharray:none;stroke-dashoffset:0;stroke-opacity:1"
       id="circle5889"
       cx="-878.36261"
       cy="2857.2815"
       r="5.3149605" />
    <circle
       style="opacity:1;fill:#000000;fill-opacity:1;fill-rule:evenodd;stroke:none;stroke-width:23.99881935;stroke-linecap:square;stroke-linejoin:miter;stroke-miterlimit:4;stroke-dasharray:none;stroke-dashoffset:0;stroke-opacity:1"
       id="circle5891"
       cx="-385.84299"
       cy="2364.7615"
       r="5.3149605" />
    <rect
       transform="matrix(0,1,1,0,0,0)"
       y="-819.55151"
       x="2433.6016"
       height="10.629921"
       width="17.716536"
       id="rect5939"
       style="opacity:0.5;fill:#8d8d8d;fill-opacity:1;fill-rule:evenodd;stroke:none;stroke-width:26;stroke-linecap:square;stroke-linejoin:miter;stroke-miterlimit:4;stroke-dasharray:none;stroke-dashoffset:0;stroke-opacity:1" />
    <rect
       y="-586.04022"
       x="-2628.738"
       height="10.629921"
       width="35.433071"
       id="rect5943"
       style="opacity:1;fill:none;fill-opacity:1;fill-rule:evenodd;stroke:none;stroke-width:5;stroke-linecap:square;stroke-linejoin:miter;stroke-miterlimit:4;stroke-dasharray:none;stroke-dashoffset:0;stroke-opacity:1"
       transform="matrix(0,-1,1,0,0,0)" />
    <rect
       style="opacity:0.5;fill:#8d8d8d;fill-opacity:1;fill-rule:evenodd;stroke:none;stroke-width:26;stroke-linecap:square;stroke-linejoin:miter;stroke-miterlimit:4;stroke-dasharray:none;stroke-dashoffset:0;stroke-opacity:1"
       id="rect5951"
       width="35.433071"
       height="10.629921"
       x="2399.4426"
       y="-1653.4634"
       transform="matrix(-0.77162458,0.63607822,-0.63607822,-0.77162458,0,0)" />
    <rect
       style="opacity:0.5;fill:#8d8d8d;fill-opacity:1;fill-rule:evenodd;stroke:none;stroke-width:26;stroke-linecap:square;stroke-linejoin:miter;stroke-miterlimit:4;stroke-dasharray:none;stroke-dashoffset:0;stroke-opacity:1"
       id="rect5953"
       width="70.866142"
       height="10.629921"
       x="-2352.9324"
       y="1642.834"
       transform="matrix(0.77162458,-0.63607822,0.63607822,0.77162458,0,0)" />
    <rect
       style="opacity:0.5;fill:#8d8d8d;fill-opacity:1;fill-rule:evenodd;stroke:none;stroke-width:26;stroke-linecap:square;stroke-linejoin:miter;stroke-miterlimit:4;stroke-dasharray:none;stroke-dashoffset:0;stroke-opacity:1"
       id="rect5959"
       width="17.716536"
       height="10.629921"
       x="2765.1003"
       y="-819.55151"
       transform="matrix(0,1,1,0,0,0)" />
    <rect
       y="2375.9929"
       x="1001.1868"
       height="10.629921"
       width="70.866142"
       id="rect5965"
       style="opacity:0.5;fill:#8d8d8d;fill-opacity:1;fill-rule:evenodd;stroke:none;stroke-width:26;stroke-linecap:square;stroke-linejoin:miter;stroke-miterlimit:4;stroke-dasharray:none;stroke-dashoffset:0;stroke-opacity:1"
       transform="matrix(0.77162458,0.63607822,-0.63607822,0.77162458,0,0)" />
    <g
       transform="translate(-7391.3784,-3553.2741)"
       id="g6116">
      <circle
         r="5.492126"
         cy="6253.2876"
         cx="6582.7764"
         id="circle6118"
         style="opacity:1;fill:none;fill-opacity:1;fill-rule:evenodd;stroke:none;stroke-width:1;stroke-linecap:square;stroke-linejoin:miter;stroke-miterlimit:4;stroke-dasharray:none;stroke-dashoffset:0;stroke-opacity:1" />
      <circle
         style="opacity:1;fill:none;fill-opacity:1;fill-rule:evenodd;stroke:none;stroke-width:1;stroke-linecap:square;stroke-linejoin:miter;stroke-miterlimit:4;stroke-dasharray:none;stroke-dashoffset:0;stroke-opacity:1"
         id="circle6120"
         cx="6634.6123"
         cy="6209.6362"
         r="5.492126" />
    </g>
    <path
       inkscape:connector-curvature="0"
       id="path8615"
       d="m 198.40204,3065.353 -10.6308,0 0,-24.8028 -31.8887,0 0,-17.7168 -492.51954,0 0,42.5196 -10.6309,0 0,35.4335 10.6309,0 0,109.8418 -10.6309,0 0,35.4336 10.6309,0 0,27.4883 10.6289,0 0,3.543 10.8359,0 0,10.6289 -10.8359,0 0,22.119 503.15044,0 0,-22.119 -10.836,0 0,-10.6289 10.836,0 0,-3.543 10.6289,0 0,-27.4883 10.6308,0 0,-35.4316 -10.6308,0 0,-109.8438 10.6308,0 0,-35.4335 z"
       style="opacity:0.5;fill:#8d8d8d;fill-opacity:1;fill-rule:evenodd;stroke:none;stroke-width:26;stroke-linecap:square;stroke-linejoin:miter;stroke-miterlimit:4;stroke-dasharray:none;stroke-dashoffset:0;stroke-opacity:1" />
    <path
       inkscape:connector-curvature="0"
       id="path8617"
       d="m -289.15165,3316.4903 -8.5938,10.4257 -13.8808,0.07 -0.027,7.2617 13.0195,0 0,1.9238 9.3887,-5.4219 9.457,5.461 0,10.9199 -9.457,5.4609 -9.457,-5.4609 0,-1.3692 -12.9727,0 0.066,8.8184 12.9961,0.031 14.2637,11.7578 22.5371,-27.3418 -27.3398,-22.5371 z"
       style="opacity:0.5;fill:#8d8d8d;fill-opacity:1;fill-rule:evenodd;stroke:none;stroke-width:26;stroke-linecap:square;stroke-linejoin:miter;stroke-miterlimit:4;stroke-dasharray:none;stroke-dashoffset:0;stroke-opacity:1" />
    <path
       inkscape:connector-curvature="0"
       id="path8619"
       d="m -233.15165,3314.4903 -8.5938,10.4257 -13.8808,0.07 -0.027,7.2617 13.0195,0 0,1.9238 9.3887,-5.4219 9.457,5.461 0,10.9199 -9.457,5.4609 -9.457,-5.4609 0,-1.3692 -12.9727,0 0.066,8.8184 12.9961,0.031 14.2637,11.7578 22.5371,-27.3418 -27.3398,-22.5371 z"
       style="opacity:0.5;fill:#8d8d8d;fill-opacity:1;fill-rule:evenodd;stroke:none;stroke-width:26;stroke-linecap:square;stroke-linejoin:miter;stroke-miterlimit:4;stroke-dasharray:none;stroke-dashoffset:0;stroke-opacity:1" />
    <path
       style="opacity:0.5;fill:#8d8d8d;fill-opacity:1;fill-rule:evenodd;stroke:none;stroke-width:26;stroke-linecap:square;stroke-linejoin:miter;stroke-miterlimit:4;stroke-dasharray:none;stroke-dashoffset:0;stroke-opacity:1"
       d="m -173.15165,3316.4903 -8.5938,10.4257 -13.8808,0.07 -0.027,7.2617 13.0195,0 0,1.9238 9.3887,-5.4219 9.457,5.461 0,10.9199 -9.457,5.4609 -9.457,-5.4609 0,-1.3692 -12.9727,0 0.066,8.8184 12.9961,0.031 14.2637,11.7578 22.5371,-27.3418 -27.3398,-22.5371 z"
       id="path8621"
       inkscape:connector-curvature="0" />
    <path
       style="opacity:0.5;fill:#8d8d8d;fill-opacity:1;fill-rule:evenodd;stroke:none;stroke-width:26;stroke-linecap:square;stroke-linejoin:miter;stroke-miterlimit:4;stroke-dasharray:none;stroke-dashoffset:0;stroke-opacity:1"
       d="m -113.15165,3314.4903 -8.5938,10.4257 -13.8808,0.07 -0.027,7.2617 13.0195,0 0,1.9238 9.3887,-5.4219 9.457,5.461 0,10.9199 -9.457,5.4609 -9.457,-5.4609 0,-1.3692 -12.9727,0 0.066,8.8184 12.9961,0.031 14.2637,11.7578 22.5371,-27.3418 -27.3398,-22.5371 z"
       id="path8623"
       inkscape:connector-curvature="0" />
    <path
       inkscape:connector-curvature="0"
       id="path8625"
       d="m -53.15165,3316.4903 -8.5938,10.4257 -13.8808,0.07 -0.027,7.2617 13.0195,0 0,1.9238 9.3887,-5.4219 9.457,5.461 0,10.9199 -9.457,5.4609 -9.457,-5.4609 0,-1.3692 -12.9727,0 0.066,8.8184 12.9961,0.031 14.2637,11.7578 22.5371,-27.3418 -27.3398,-22.5371 z"
       style="opacity:0.5;fill:#8d8d8d;fill-opacity:1;fill-rule:evenodd;stroke:none;stroke-width:26;stroke-linecap:square;stroke-linejoin:miter;stroke-miterlimit:4;stroke-dasharray:none;stroke-dashoffset:0;stroke-opacity:1" />
    <path
       inkscape:connector-curvature="0"
       id="path8627"
       d="m 8.84835,3314.4903 -8.5938,10.4257 -13.8808,0.07 -0.027,7.2617 13.0195,0 0,1.9238 9.3887,-5.4219 9.457,5.461 0,10.9199 -9.457,5.4609 -9.457,-5.4609 0,-1.3692 -12.9727,0 0.066,8.8184 12.9961,0.031 14.2637,11.7578 22.5371,-27.3418 -27.3398,-22.5371 z"
       style="opacity:0.5;fill:#8d8d8d;fill-opacity:1;fill-rule:evenodd;stroke:none;stroke-width:26;stroke-linecap:square;stroke-linejoin:miter;stroke-miterlimit:4;stroke-dasharray:none;stroke-dashoffset:0;stroke-opacity:1" />
    <path
       style="opacity:0.5;fill:#8d8d8d;fill-opacity:1;fill-rule:evenodd;stroke:none;stroke-width:26;stroke-linecap:square;stroke-linejoin:miter;stroke-miterlimit:4;stroke-dasharray:none;stroke-dashoffset:0;stroke-opacity:1"
       d="m 68.84835,3316.4903 -8.5938,10.4257 -13.8808,0.07 -0.027,7.2617 13.0195,0 0,1.9238 9.3887,-5.4219 9.457,5.461 0,10.9199 -9.457,5.4609 -9.457,-5.4609 0,-1.3692 -12.9727,0 0.066,8.8184 12.9961,0.031 14.2637,11.7578 22.5371,-27.3418 -27.3398,-22.5371 z"
       id="path8629"
       inkscape:connector-curvature="0" />
  </g>
</svg>
