<?xml version="1.0" encoding="UTF-8" standalone="no"?>
<svg
   xmlns:dc="http://purl.org/dc/elements/1.1/"
   xmlns:cc="http://creativecommons.org/ns#"
   xmlns:rdf="http://www.w3.org/1999/02/22-rdf-syntax-ns#"
   xmlns:svg="http://www.w3.org/2000/svg"
   xmlns="http://www.w3.org/2000/svg"
   xmlns:sodipodi="http://sodipodi.sourceforge.net/DTD/sodipodi-0.dtd"
   xmlns:inkscape="http://www.inkscape.org/namespaces/inkscape"
   version="1.1"
   width="1428.9944"
   height="983.52637"
   viewBox="0 0 1428.9955 983.52711"
   id="svg2"
   inkscape:version="0.48.4 r9939"
   sodipodi:docname="b3_v3-cp3mm.svg">
  <metadata
     id="metadata32">
    <rdf:RDF>
      <cc:Work
         rdf:about="">
        <dc:format>image/svg+xml</dc:format>
        <dc:type
           rdf:resource="http://purl.org/dc/dcmitype/StillImage" />
        <dc:title></dc:title>
      </cc:Work>
    </rdf:RDF>
  </metadata>
  <defs
     id="defs30">
    <inkscape:perspective
       id="perspective27"
       inkscape:persp3d-origin="87.5 : 50.666667 : 1"
       inkscape:vp_z="175 : 76 : 1"
       inkscape:vp_y="0 : 1000 : 0"
       inkscape:vp_x="0 : 76 : 1"
       sodipodi:type="inkscape:persp3d" />
  </defs>
  <sodipodi:namedview
     pagecolor="#ffffff"
     bordercolor="#666666"
     borderopacity="1"
     objecttolerance="10"
     gridtolerance="10"
     guidetolerance="10"
     inkscape:pageopacity="1"
     inkscape:pageshadow="2"
     inkscape:window-width="1366"
     inkscape:window-height="721"
     id="namedview28"
     showgrid="false"
     inkscape:zoom="0.35355339"
     inkscape:cx="1198.0935"
     inkscape:cy="688.67635"
     inkscape:window-x="0"
     inkscape:window-y="25"
     inkscape:window-maximized="1"
     inkscape:current-layer="layer1"
     inkscape:document-units="mm"
     units="mm"
     fit-margin-top="10"
     fit-margin-left="10"
     fit-margin-right="10"
     fit-margin-bottom="10"
     showguides="true"
     inkscape:guide-bbox="true"
     inkscape:showpageshadow="false" />
  <!-- Front-->
  <!-- Back-->
  <!-- Left-->
  <g
     inkscape:groupmode="layer"
     id="layer1"
     inkscape:label="decoupe"
     style="display:inline"
     transform="translate(-3.9134873,-0.26333693)">
    <g
       transform="translate(40.704687,501.73238)"
       id="g4"
       style="fill:none;stroke:#000000;stroke-width:1.25000098;stroke-miterlimit:4;stroke-opacity:1;stroke-dasharray:none">
      <path
         style="stroke:#000000;stroke-width:1.25000098"
         d="m 446.45706,0 0,89.291412 -10.62993,0 0,89.291408 10.62993,0 0,89.29142 -10.62993,0 0,89.29141 10.62993,0 0,89.29141 -89.29141,0 0,-10.62993 -89.29141,0 0,10.62993 -89.29142,0 0,-10.62993 -89.291408,0 0,10.62993 -89.291412,0 0,-89.29141 10.62993,0 0,-89.29141 -10.62993,0 0,-89.29142 10.62993,0 0,-89.291408 L 0,89.291412 0,0 l 89.291412,0 0,10.62993 89.291408,0 0,-10.62993 89.29142,0 0,10.62993 89.29141,0 0,-10.62993 z"
         id="polygon6" />
    </g>
    <g
       transform="translate(496.18699,35.883907)"
       id="g8"
       style="fill:none;stroke:#000000;stroke-width:1.25000098;stroke-miterlimit:4;stroke-opacity:1;stroke-dasharray:none">
      <path
         style="stroke:#000000;stroke-width:1.25000098"
         d="m 178.58282,0 89.29142,0 0,10.62993 89.29141,0 0,-10.62993 89.29141,0 0,89.291412 -10.62993,0 0,89.291408 10.62993,0 0,89.29142 -10.62993,0 0,89.29141 10.62993,0 0,89.29141 -89.29141,0 0,-10.62993 -89.29141,0 0,10.62993 -89.29142,0 0,-10.62993 -89.291408,0 0,10.62993 -89.291412,0 0,-89.29141 10.62993,0 0,-89.29141 -10.62993,0 0,-89.29142 10.62993,0 0,-89.291408 L 0,89.291412 0,0 l 89.291412,0 0,10.62993 89.291408,0 z"
         id="polygon10" />
    </g>
    <g
       transform="translate(39.534087,37.047907)"
       id="g12"
       style="fill:none;stroke:#000000;stroke-width:1.25000098;stroke-miterlimit:4;stroke-opacity:1;stroke-dasharray:none">
      <path
         style="stroke:#000000;stroke-width:1.25000098"
         d="m 10.625,0 0,89.28125 -10.625,0 0,89.3125 10.625,0 0,89.28125 -10.625,0 0,89.28125 10.625,0 0,89.3125 78.65625,0 0,-10.65625 89.3125,0 0,10.65625 89.28125,0 0,-10.65625 89.28125,0 0,10.65625 78.65625,0 0,-89.3125 10.65625,0 0,-89.28125 -10.65625,0 0,-89.28125 10.65625,0 0,-89.3125 -10.65625,0 0,-89.28125 -78.65625,0 0,10.625 -89.28125,0 0,-10.625 -89.28125,0 0,10.625 -89.3125,0 0,-10.625 L 10.625,0 z"
         id="path3827" />
    </g>
    <g
       transform="translate(950.39009,36.142497)"
       id="g16"
       style="fill:none;stroke:#000000;stroke-width:1.25000098;stroke-miterlimit:4;stroke-opacity:1;stroke-dasharray:none">
      <path
         style="stroke:#000000;stroke-width:1.25000098"
         d="m 357.16565,446.45706 0,-10.62993 -89.29141,0 0,10.62993 -89.29142,0 0,-10.62993 -89.291408,0 0,10.62993 -78.661482,0 0,-89.29141 -10.62993,0 0,-89.29141 10.62993,0 0,-89.29142 -10.62993,0 0,-89.291408 10.62993,0 0,-89.291412 78.661482,0 0,10.62993 89.291408,0 0,-10.62993 89.29142,0 0,10.62993 89.29141,0 0,-10.62993 78.66148,0 0,89.291412 10.62993,0 0,89.291408 -10.62993,0 0,89.29142 10.62993,0 0,89.29141 -10.62993,0 0,89.29141 z"
         id="polygon18" />
    </g>
    <g
       transform="translate(496.21279,491.2225)"
       id="g24"
       style="fill:none;stroke:#000000;stroke-width:1.25000098;stroke-miterlimit:4;stroke-opacity:1;stroke-dasharray:none">
      <path
         style="stroke:#000000;stroke-width:1.25000098"
         d="m 446.45706,267.87424 0,89.29141 -10.62993,0 0,78.66148 -78.66148,0 0,10.62993 -89.29141,0 0,-10.62993 -89.29142,0 0,10.62993 -89.291408,0 0,-10.62993 -78.661482,0 0,-78.66148 -10.62993,0 0,-89.29141 10.62993,0 0,-89.29142 -10.62993,0 0,-89.291408 10.62993,0 0,-78.661482 78.661482,0 0,-10.62993 89.291408,0 0,10.62993 89.29142,0 0,-10.62993 89.29141,0 0,10.62993 78.66148,0 0,78.661482 10.62993,0 0,89.291408 -10.62993,0 0,89.29142 z"
         id="polygon26" />
    </g>
    <g
       id="g4266"
       transform="translate(87.897387,-476.57021)"
       style="fill:none;stroke:#000000;stroke-width:1.25000098;stroke-miterlimit:4;stroke-opacity:1;stroke-dasharray:none">
      <path
         style="font-size:medium;font-style:normal;font-variant:normal;font-weight:normal;font-stretch:normal;text-indent:0;text-align:start;text-decoration:none;line-height:normal;letter-spacing:normal;word-spacing:normal;text-transform:none;direction:ltr;block-progression:tb;writing-mode:lr-tb;text-anchor:start;baseline-shift:baseline;color:#000000;fill:#ff0000;fill-opacity:1;stroke:none;stroke-width:1.25000098;marker:none;visibility:visible;display:inline;overflow:visible;enable-background:accumulate;font-family:Sans;-inkscape-font-specification:Sans"
         d="m 179.375,678.625 -4.75,0.46875 -39.75,3.96875 -2.65625,0.25 0.4375,2.625 19.875,123.21875 0.75,4.71875 3.4375,-3.3125 59.625,-57.625 3.3125,-3.21875 -4.5,-1.03125 -66.28125,-15.15625 28.1875,-50.75 2.3125,-4.15625 z m -9,5.90625 -25.5,45.84375 -6.875,-42.59375 32.375,-3.25 z m -24.25,53.5 63.4375,14.5 L 156.71875,803.625 146.125,738.03125 z"
         id="path3114"
         inkscape:connector-curvature="0" />
      <path
         style="font-size:medium;font-style:normal;font-variant:normal;font-weight:normal;font-stretch:normal;text-indent:0;text-align:start;text-decoration:none;line-height:normal;letter-spacing:normal;word-spacing:normal;text-transform:none;direction:ltr;block-progression:tb;writing-mode:lr-tb;text-anchor:start;baseline-shift:baseline;color:#000000;fill:#ff0000;fill-opacity:1;stroke:none;stroke-width:1.25000098;marker:none;visibility:visible;display:inline;overflow:visible;enable-background:accumulate;font-family:Sans;-inkscape-font-specification:Sans"
         d="m 208.4375,662.65625 -6.03125,0.0625 -23.875,0.21875 0.0312,5 17.84375,-0.15625 -10.46875,10.6875 -3.3125,3.375 4.65625,0.8125 14.8125,2.6875 -12.21875,13.125 3.6875,3.40625 15.34375,-16.5 3.125,-3.34375 -4.5,-0.8125 -14.6875,-2.625 11.375,-11.625 4.21875,-4.3125 z"
         id="path3120"
         inkscape:connector-curvature="0" />
    </g>
    <path
       transform="matrix(0.49181019,0,0,0.49181019,399.58379,224.37394)"
       style="color:#000000;fill:none;stroke:#000000;stroke-width:2.54163293;stroke-miterlimit:4;stroke-dashoffset:0;stroke-opacity:1;marker:none;visibility:visible;display:inline;overflow:visible;enable-background:accumulate"
       d="m 816.70008,392.05728 c 0,15.36427 -12.4552,27.81947 -27.81946,27.81947 -15.36427,0 -27.81947,-12.4552 -27.81947,-27.81947 0,-15.36427 12.4552,-27.81947 27.81947,-27.81947 15.36426,0 27.81946,12.4552 27.81946,27.81947 z"
       id="path4274" />
    <path
       style="color:#000000;fill:none;stroke:#000000;stroke-width:1.25000098;stroke-miterlimit:4;stroke-dashoffset:0;stroke-opacity:1;marker:none;visibility:visible;display:inline;overflow:visible;enable-background:accumulate"
       d="m 697.42456,398.84033 46.06303,0 0,42.51972 -46.06303,0 z"
       id="rect4278" />
    <g
       id="g4615"
       transform="translate(-7.152513,-108.65342)"
       style="fill:none;stroke:#000000;stroke-width:1.25000098;stroke-opacity:1">
      <g
         id="g4583"
         style="fill:none;stroke:#000000;stroke-width:1.25000098;stroke-opacity:1">
        <path
           transform="matrix(0.60135801,0,0,0.37165969,272.4394,140.9434)"
           style="color:#000000;stroke:#000000;stroke-width:2.64405857;stroke-miterlimit:4;stroke-dashoffset:0;marker:none;visibility:visible;display:inline;overflow:visible;enable-background:accumulate"
           d="m 567.31843,222.87637 c 0,7.54676 -3.78105,13.66462 -8.4452,13.66462 -4.66415,0 -8.4452,-6.11786 -8.4452,-13.66462 0,-7.54675 3.78105,-13.66461 8.4452,-13.66461 4.66415,0 8.4452,6.11786 8.4452,13.66461 z"
           id="path4563" />
      </g>
      <g
         transform="translate(62.94623,0)"
         id="g4587"
         style="fill:none;stroke:#000000;stroke-width:1.25000098;stroke-opacity:1">
        <path
           transform="matrix(0.60135801,0,0,0.37165969,272.41494,209.31882)"
           style="color:#000000;stroke:#000000;stroke-width:2.64405857;stroke-miterlimit:4;stroke-dashoffset:0;marker:none;visibility:visible;display:inline;overflow:visible;enable-background:accumulate"
           d="m 567.31843,222.87637 c 0,7.54676 -3.78105,13.66462 -8.4452,13.66462 -4.66415,0 -8.4452,-6.11786 -8.4452,-13.66462 0,-7.54675 3.78105,-13.66461 8.4452,-13.66461 4.66415,0 8.4452,6.11786 8.4452,13.66461 z"
           id="path4591" />
      </g>
    </g>
    <g
       transform="translate(165.56679,11.108447)"
       id="g4754"
       style="fill:none;stroke:#000000;stroke-width:1.25000098;stroke-opacity:1">
      <g
         id="g4756"
         style="fill:none;stroke:#000000;stroke-width:1.25000098;stroke-opacity:1">
        <path
           transform="matrix(0.60135801,0,0,0.37165969,272.4394,140.9434)"
           style="color:#000000;stroke:#000000;stroke-width:2.64405857;stroke-miterlimit:4;stroke-dashoffset:0;marker:none;visibility:visible;display:inline;overflow:visible;enable-background:accumulate"
           d="m 567.31843,222.87637 c 0,7.54676 -3.78105,13.66462 -8.4452,13.66462 -4.66415,0 -8.4452,-6.11786 -8.4452,-13.66462 0,-7.54675 3.78105,-13.66461 8.4452,-13.66461 4.66415,0 8.4452,6.11786 8.4452,13.66461 z"
           id="path4758" />
      </g>
      <g
         id="g4762"
         transform="translate(62.94623,0)"
         style="fill:none;stroke:#000000;stroke-width:1.25000098;stroke-opacity:1">
        <path
           transform="matrix(0.60135801,0,0,0.37165969,272.41494,209.31882)"
           style="color:#000000;stroke:#000000;stroke-width:2.64405857;stroke-miterlimit:4;stroke-dashoffset:0;marker:none;visibility:visible;display:inline;overflow:visible;enable-background:accumulate"
           d="m 567.31843,222.87637 c 0,7.54676 -3.78105,13.66462 -8.4452,13.66462 -4.66415,0 -8.4452,-6.11786 -8.4452,-13.66462 0,-7.54675 3.78105,-13.66461 8.4452,-13.66461 4.66415,0 8.4452,6.11786 8.4452,13.66461 z"
           id="path4766" />
      </g>
    </g>
    <g
       id="g4778"
       transform="matrix(0,1,-1,0,855.79599,-295.38766)"
       style="fill:none;stroke:#000000;stroke-width:1.25000098;stroke-opacity:1">
      <g
         id="g4780"
         style="fill:none;stroke:#000000;stroke-width:1.25000098;stroke-opacity:1">
        <path
           transform="matrix(0.60135801,0,0,0.37165969,272.41494,209.31882)"
           style="color:#000000;stroke:#000000;stroke-width:2.64405857;stroke-miterlimit:4;stroke-dashoffset:0;marker:none;visibility:visible;display:inline;overflow:visible;enable-background:accumulate"
           d="m 567.31843,222.87637 c 0,7.54676 -3.78105,13.66462 -8.4452,13.66462 -4.66415,0 -8.4452,-6.11786 -8.4452,-13.66462 0,-7.54675 3.78105,-13.66461 8.4452,-13.66461 4.66415,0 8.4452,6.11786 8.4452,13.66461 z"
           id="path4784" />
      </g>
      <g
         transform="translate(62.94623,0)"
         id="g4786"
         style="fill:none;stroke:#000000;stroke-width:1.25000098;stroke-opacity:1">
        <path
           transform="matrix(0.60135801,0,0,0.37165969,272.4394,140.9434)"
           style="color:#000000;stroke:#000000;stroke-width:2.64405857;stroke-miterlimit:4;stroke-dashoffset:0;marker:none;visibility:visible;display:inline;overflow:visible;enable-background:accumulate"
           d="m 567.31843,222.87637 c 0,7.54676 -3.78105,13.66462 -8.4452,13.66462 -4.66415,0 -8.4452,-6.11786 -8.4452,-13.66462 0,-7.54675 3.78105,-13.66461 8.4452,-13.66461 4.66415,0 8.4452,6.11786 8.4452,13.66461 z"
           id="path4788" />
      </g>
    </g>
    <g
       style="fill:none;stroke:#000000;stroke-width:1.25000098;stroke-miterlimit:4;stroke-opacity:1;stroke-dasharray:none;display:inline"
       id="g10032"
       transform="translate(525.57134,-462.28774)">
      <rect
         ry="28.346457"
         rx="28.346457"
         y="1001.0818"
         x="500.79565"
         height="159.99225"
         width="291.09473"
         id="rect3090"
         style="fill:none;stroke:#000000;stroke-width:1.25000098;stroke-linecap:butt;stroke-linejoin:miter;stroke-miterlimit:4;stroke-opacity:1;stroke-dasharray:none;stroke-dashoffset:0" />
      <rect
         style="fill:none;stroke:#000000;stroke-width:1.25000098;stroke-linecap:butt;stroke-linejoin:miter;stroke-miterlimit:4;stroke-opacity:1;stroke-dasharray:none;stroke-dashoffset:0"
         id="rect10009"
         width="326.52783"
         height="195.42535"
         x="483.0791"
         y="983.36523" />
    </g>
    <g
       style="fill:none;stroke:#000000;stroke-width:1.25000098;stroke-miterlimit:4;stroke-opacity:1;stroke-dasharray:none;display:inline"
       transform="translate(525.57134,-244.28757)"
       id="g10036">
      <rect
         style="fill:none;stroke:#000000;stroke-width:1.25000098;stroke-linecap:butt;stroke-linejoin:miter;stroke-miterlimit:4;stroke-opacity:1;stroke-dasharray:none;stroke-dashoffset:0"
         id="rect10038"
         width="291.09473"
         height="159.99225"
         x="500.79565"
         y="1001.0818"
         rx="28.346457"
         ry="28.346457" />
      <rect
         y="983.36523"
         x="483.0791"
         height="195.42535"
         width="326.52783"
         id="rect10040"
         style="fill:none;stroke:#000000;stroke-width:1.25000098;stroke-linecap:butt;stroke-linejoin:miter;stroke-miterlimit:4;stroke-opacity:1;stroke-dasharray:none;stroke-dashoffset:0" />
    </g>
    <path
       style="fill:none;stroke:#ff0000;stroke-width:1.25000098;stroke-linecap:butt;stroke-linejoin:miter;stroke-miterlimit:4;stroke-opacity:1;stroke-dasharray:none;display:inline"
       d="m 1143.1157,581.46849 12.3994,77.62956 37.198,-36.31053 -43.3977,-10.01681 18.599,-33.80632 z"
       id="path10042"
       inkscape:connector-curvature="0" />
    <path
       style="fill:none;stroke:#ff0000;stroke-width:1.25000098;stroke-linecap:butt;stroke-linejoin:miter;stroke-miterlimit:4;stroke-opacity:1;stroke-dasharray:none;display:inline"
       d="m 1172.7061,568.48228 12.4029,0.1687 -9.167,9.4527 12.0704,2.18821 -8.9581,8.1927"
       id="path10044"
       inkscape:connector-curvature="0"
       sodipodi:nodetypes="ccccc" />
    <path
       inkscape:connector-curvature="0"
       id="path10108"
       d="m 1145.1157,801.46866 12.3994,77.62956 37.198,-36.31053 -43.3977,-10.01681 18.599,-33.80632 z"
       style="fill:none;stroke:#ff0000;stroke-width:1.25000098;stroke-linecap:butt;stroke-linejoin:miter;stroke-miterlimit:4;stroke-opacity:1;stroke-dasharray:none;display:inline" />
    <path
       sodipodi:nodetypes="ccccc"
       inkscape:connector-curvature="0"
       id="path10110"
       d="m 1174.7061,788.48245 12.4029,0.1687 -9.167,9.4527 12.0704,2.18821 -8.9581,8.1927"
       style="fill:none;stroke:#ff0000;stroke-width:1.25000098;stroke-linecap:butt;stroke-linejoin:miter;stroke-miterlimit:4;stroke-opacity:1;stroke-dasharray:none;display:inline" />
  </g>
  <!-- Right-->
  <!-- Top-->
  <!-- Bottom-->
  <text
     xml:space="preserve"
     style="font-size:64px;font-style:normal;font-weight:normal;line-height:125%;letter-spacing:0px;word-spacing:0px;fill:none;stroke:#000000;stroke-width:0.35433099;stroke-miterlimit:4;stroke-opacity:1;stroke-dasharray:none;font-family:Sans"
     x="196.56779"
     y="653.89905"
     id="text3116"
     sodipodi:linespacing="125%"><tspan
       sodipodi:role="line"
       id="tspan3118"
       x="196.56779"
       y="653.89905"
       style="fill:none;stroke:#000000;stroke-width:0.35433099;stroke-opacity:1" /></text>
</svg>
