(export (version D)
  (design
    (source /home/jr/kicad/projects/b3-v8-traversant/b3-v1.sch)
    (date "mar. 09 févr. 2016 14:23:05 CET")
    (tool "Eeschema 4.0.1-3.201602080046+6200~38~ubuntu14.04.1-stable")
    (sheet (number 1) (name /) (tstamps /)
      (title_block
        (title B3)
        (company "Reso-nance numérique")
        (rev)
        (date)
        (source b3-v1.sch)
        (comment (number 1) (value "Projet de Boîte sonore et lumineuse"))
        (comment (number 2) (value ""))
        (comment (number 3) (value ""))
        (comment (number 4) (value "")))))
  (components
    (comp (ref R1)
      (value 100)
      (footprint Resonance:_R_ThroughHole)
      (libsource (lib device) (part R))
      (sheetpath (names /) (tstamps /))
      (tstamp 561BCBF7))
    (comp (ref R4)
      (value 10K)
      (footprint Resonance:_R_ThroughHole)
      (libsource (lib device) (part R))
      (sheetpath (names /) (tstamps /))
      (tstamp 561BCCF5))
    (comp (ref D1)
      (value 1N4007)
      (footprint Resonance:_Diode_DO-41)
      (libsource (lib device) (part D))
      (sheetpath (names /) (tstamps /))
      (tstamp 561BCE23))
    (comp (ref P2)
      (value USB_B)
      (footprint Resonance:_USB_B)
      (libsource (lib conn) (part USB_B))
      (sheetpath (names /) (tstamps /))
      (tstamp 561E1694))
    (comp (ref P4)
      (value 1x4-LED_RGB)
      (footprint Resonance:_PinHeader_1x04)
      (libsource (lib conn) (part CONN_01X04))
      (sheetpath (names /) (tstamps /))
      (tstamp 56264074))
    (comp (ref R7)
      (value 270)
      (footprint Resonance:_R_ThroughHole)
      (libsource (lib device) (part R))
      (sheetpath (names /) (tstamps /))
      (tstamp 56262B0C))
    (comp (ref R8)
      (value 270)
      (footprint Resonance:_R_ThroughHole)
      (libsource (lib device) (part R))
      (sheetpath (names /) (tstamps /))
      (tstamp 56262D65))
    (comp (ref R9)
      (value 270)
      (footprint Resonance:_R_ThroughHole)
      (libsource (lib device) (part R))
      (sheetpath (names /) (tstamps /))
      (tstamp 56262DE1))
    (comp (ref P1)
      (value CONN_01X02)
      (footprint Resonance:_Bornier_2)
      (libsource (lib conn) (part CONN_01X02))
      (sheetpath (names /) (tstamps /))
      (tstamp 5626AC72))
    (comp (ref R2)
      (value 100)
      (footprint Resonance:_R_ThroughHole)
      (libsource (lib device) (part R))
      (sheetpath (names /) (tstamps /))
      (tstamp 56267140))
    (comp (ref R5)
      (value 10K)
      (footprint Resonance:_R_ThroughHole)
      (libsource (lib device) (part R))
      (sheetpath (names /) (tstamps /))
      (tstamp 56267146))
    (comp (ref D2)
      (value 1N4007)
      (footprint Resonance:_Diode_DO-41)
      (libsource (lib device) (part D))
      (sheetpath (names /) (tstamps /))
      (tstamp 56267152))
    (comp (ref R3)
      (value 100)
      (footprint Resonance:_R_ThroughHole)
      (libsource (lib device) (part R))
      (sheetpath (names /) (tstamps /))
      (tstamp 56267380))
    (comp (ref R6)
      (value 10K)
      (footprint Resonance:_R_ThroughHole)
      (libsource (lib device) (part R))
      (sheetpath (names /) (tstamps /))
      (tstamp 56267386))
    (comp (ref D3)
      (value 1N4007)
      (footprint Resonance:_Diode_DO-41)
      (libsource (lib device) (part D))
      (sheetpath (names /) (tstamps /))
      (tstamp 56267392))
    (comp (ref P3)
      (value 1x6-SOLENOIDS)
      (footprint Resonance:_Bornier_6)
      (libsource (lib conn) (part CONN_01X06))
      (sheetpath (names /) (tstamps /))
      (tstamp 5626950B))
    (comp (ref D4)
      (value LED_RCBG)
      (footprint Resonance:_LED-RGB_CommonCathode)
      (libsource (lib device) (part LED_RCBG))
      (sheetpath (names /) (tstamps /))
      (tstamp 563A1A96))
    (comp (ref Q1)
      (value _MOSFET_N)
      (footprint Resonance:_TO220_Vertical)
      (libsource (lib resonance) (part _MOSFET_N))
      (sheetpath (names /) (tstamps /))
      (tstamp 564231F1))
    (comp (ref Q2)
      (value _MOSFET_N)
      (footprint Resonance:_TO220_Vertical)
      (libsource (lib resonance) (part _MOSFET_N))
      (sheetpath (names /) (tstamps /))
      (tstamp 5642350C))
    (comp (ref Q3)
      (value _MOSFET_N)
      (footprint Resonance:_TO220_Vertical)
      (libsource (lib resonance) (part _MOSFET_N))
      (sheetpath (names /) (tstamps /))
      (tstamp 564235BB)))
  (libparts
    (libpart (lib conn) (part CONN_01X02)
      (description "Connector 01x02")
      (footprints
        (fp Pin_Header_Straight_1X02)
        (fp Pin_Header_Angled_1X02)
        (fp Socket_Strip_Straight_1X02)
        (fp Socket_Strip_Angled_1X02))
      (fields
        (field (name Reference) P)
        (field (name Value) CONN_01X02))
      (pins
        (pin (num 1) (name P1) (type passive))
        (pin (num 2) (name P2) (type passive))))
    (libpart (lib conn) (part CONN_01X04)
      (description "Connector 01x04")
      (footprints
        (fp Pin_Header_Straight_1X04)
        (fp Pin_Header_Angled_1X04)
        (fp Socket_Strip_Straight_1X04)
        (fp Socket_Strip_Angled_1X04))
      (fields
        (field (name Reference) P)
        (field (name Value) CONN_01X04))
      (pins
        (pin (num 1) (name P1) (type passive))
        (pin (num 2) (name P2) (type passive))
        (pin (num 3) (name P3) (type passive))
        (pin (num 4) (name P4) (type passive))))
    (libpart (lib conn) (part CONN_01X06)
      (description "Connector 01x06")
      (footprints
        (fp Pin_Header_Straight_1X06)
        (fp Pin_Header_Angled_1X06)
        (fp Socket_Strip_Straight_1X06)
        (fp Socket_Strip_Angled_1X06))
      (fields
        (field (name Reference) P)
        (field (name Value) CONN_01X06))
      (pins
        (pin (num 1) (name P1) (type passive))
        (pin (num 2) (name P2) (type passive))
        (pin (num 3) (name P3) (type passive))
        (pin (num 4) (name P4) (type passive))
        (pin (num 5) (name P5) (type passive))
        (pin (num 6) (name P6) (type passive))))
    (libpart (lib device) (part D)
      (description Diode)
      (footprints
        (fp Diode_*)
        (fp D-Pak_TO252AA)
        (fp *SingleDiode)
        (fp *_Diode_*)
        (fp *SingleDiode*))
      (fields
        (field (name Reference) D)
        (field (name Value) D))
      (pins
        (pin (num 1) (name K) (type passive))
        (pin (num 2) (name A) (type passive))))
    (libpart (lib device) (part LED_RCBG)
      (description "Common Cathode RGB LED")
      (fields
        (field (name Reference) D)
        (field (name Value) LED_RCBG))
      (pins
        (pin (num 1) (name RED_ANODE) (type passive))
        (pin (num 2) (name COMMON_CATHODE) (type passive))
        (pin (num 3) (name BLUE_ANODE) (type passive))
        (pin (num 4) (name GREEN_ANODE) (type passive))))
    (libpart (lib device) (part R)
      (description Resistor)
      (footprints
        (fp R_*)
        (fp Resistor_*))
      (fields
        (field (name Reference) R)
        (field (name Value) R))
      (pins
        (pin (num 1) (name ~) (type passive))
        (pin (num 2) (name ~) (type passive))))
    (libpart (lib conn) (part USB_B)
      (description "B connector")
      (footprints
        (fp USB*))
      (fields
        (field (name Reference) P)
        (field (name Value) USB_B))
      (pins
        (pin (num 1) (name VCC) (type power_out))
        (pin (num 2) (name D-) (type passive))
        (pin (num 3) (name D+) (type passive))
        (pin (num 4) (name GND) (type power_in))
        (pin (num 5) (name shield) (type passive))))
    (libpart (lib resonance) (part _MOSFET_N)
      (description "Transistor N-MOSFET, collector connected to mounting plane (general)")
      (fields
        (field (name Reference) Q)
        (field (name Value) _MOSFET_N))
      (pins
        (pin (num 1) (name G) (type input))
        (pin (num 2) (name D) (type passive))
        (pin (num 3) (name S) (type passive)))))
  (libraries
    (library (logical device)
      (uri /usr/share/kicad/library/device.lib))
    (library (logical conn)
      (uri /usr/share/kicad/library/conn.lib))
    (library (logical resonance)
      (uri /home/jr/kicad/lib/library/resonance.lib)))
  (nets
    (net (code 1) (name "Net-(Q3-Pad1)")
      (node (ref Q3) (pin 1))
      (node (ref R3) (pin 2))
      (node (ref R6) (pin 1)))
    (net (code 2) (name GND)
      (node (ref P1) (pin 1))
      (node (ref P2) (pin 5))
      (node (ref R5) (pin 2))
      (node (ref R6) (pin 2))
      (node (ref P2) (pin 4))
      (node (ref P4) (pin 4))
      (node (ref R4) (pin 2))
      (node (ref Q1) (pin 3))
      (node (ref Q2) (pin 3))
      (node (ref Q3) (pin 3))
      (node (ref D4) (pin 2)))
    (net (code 3) (name "Net-(Q1-Pad1)")
      (node (ref R1) (pin 2))
      (node (ref Q1) (pin 1))
      (node (ref R4) (pin 1)))
    (net (code 4) (name "Net-(Q2-Pad1)")
      (node (ref Q2) (pin 1))
      (node (ref R5) (pin 1))
      (node (ref R2) (pin 2)))
    (net (code 5) (name "Net-(D4-Pad4)")
      (node (ref R8) (pin 1))
      (node (ref D4) (pin 4)))
    (net (code 6) (name L3)
      (node (ref Q3) (pin 2))
      (node (ref D3) (pin 2))
      (node (ref P3) (pin 6)))
    (net (code 7) (name L1)
      (node (ref Q1) (pin 2))
      (node (ref P3) (pin 2))
      (node (ref D1) (pin 2)))
    (net (code 8) (name +12V)
      (node (ref D1) (pin 1))
      (node (ref D2) (pin 1))
      (node (ref D3) (pin 1))
      (node (ref P1) (pin 2))
      (node (ref P3) (pin 5))
      (node (ref P3) (pin 1))
      (node (ref P3) (pin 3)))
    (net (code 9) (name L2)
      (node (ref P3) (pin 4))
      (node (ref Q2) (pin 2))
      (node (ref D2) (pin 2)))
    (net (code 10) (name "Net-(D4-Pad1)")
      (node (ref D4) (pin 1))
      (node (ref R9) (pin 1)))
    (net (code 11) (name "Net-(D4-Pad3)")
      (node (ref R7) (pin 1))
      (node (ref D4) (pin 3)))
    (net (code 12) (name PWM1)
      (node (ref P4) (pin 1))
      (node (ref R1) (pin 1))
      (node (ref P2) (pin 1))
      (node (ref R7) (pin 2)))
    (net (code 13) (name PWM2)
      (node (ref R8) (pin 2))
      (node (ref R2) (pin 1))
      (node (ref P4) (pin 2))
      (node (ref P2) (pin 2)))
    (net (code 14) (name PWM3)
      (node (ref P4) (pin 3))
      (node (ref R3) (pin 1))
      (node (ref P2) (pin 3))
      (node (ref R9) (pin 2)))))