EESchema Schematic File Version 2
LIBS:power
LIBS:device
LIBS:transistors
LIBS:conn
LIBS:linear
LIBS:regul
LIBS:74xx
LIBS:cmos4000
LIBS:adc-dac
LIBS:memory
LIBS:xilinx
LIBS:microcontrollers
LIBS:dsp
LIBS:microchip
LIBS:analog_switches
LIBS:motorola
LIBS:texas
LIBS:intel
LIBS:audio
LIBS:interface
LIBS:digital-audio
LIBS:philips
LIBS:display
LIBS:cypress
LIBS:siliconi
LIBS:opto
LIBS:atmel
LIBS:contrib
LIBS:valves
LIBS:resonance
LIBS:b3-v1-cache
EELAYER 25 0
EELAYER END
$Descr A4 11693 8268
encoding utf-8
Sheet 1 1
Title "B3"
Date "2016-02-10"
Rev ""
Comp "Reso-nance numérique"
Comment1 "Projet de Boîte sonore et lumineuse"
Comment2 ""
Comment3 ""
Comment4 ""
$EndDescr
$Comp
L R R1
U 1 1 561BCBF7
P 2750 1850
F 0 "R1" V 2830 1850 50  0000 C CNN
F 1 "100" V 2750 1850 50  0000 C CNN
F 2 "Resonance:_R_ThroughHole" V 2680 1850 30  0001 C CNN
F 3 "" H 2750 1850 30  0000 C CNN
	1    2750 1850
	0    -1   -1   0   
$EndComp
$Comp
L R R4
U 1 1 561BCCF5
P 2900 2050
F 0 "R4" V 3000 2050 50  0000 C CNN
F 1 "10K" V 2900 2050 50  0000 C CNN
F 2 "Resonance:_R_ThroughHole" V 2830 2050 30  0001 C CNN
F 3 "" H 2900 2050 30  0000 C CNN
	1    2900 2050
	1    0    0    -1  
$EndComp
$Comp
L +12V #PWR01
U 1 1 561BCD93
P 3300 1350
F 0 "#PWR01" H 3300 1200 50  0001 C CNN
F 1 "+12V" H 3300 1490 50  0000 C CNN
F 2 "" H 3300 1350 60  0000 C CNN
F 3 "" H 3300 1350 60  0000 C CNN
	1    3300 1350
	1    0    0    -1  
$EndComp
$Comp
L D D1
U 1 1 561BCE23
P 3300 1500
F 0 "D1" H 3300 1600 50  0000 C CNN
F 1 "1N4007" H 3300 1400 50  0000 C CNN
F 2 "Resonance:_Diode_DO-41" H 3300 1500 60  0001 C CNN
F 3 "" H 3300 1500 60  0000 C CNN
	1    3300 1500
	0    1    1    0   
$EndComp
$Comp
L GND #PWR02
U 1 1 561BEDC9
P 3300 2200
F 0 "#PWR02" H 3300 1950 50  0001 C CNN
F 1 "GND" H 3300 2050 50  0000 C CNN
F 2 "" H 3300 2200 60  0000 C CNN
F 3 "" H 3300 2200 60  0000 C CNN
	1    3300 2200
	1    0    0    -1  
$EndComp
Text GLabel 2600 1850 0    60   Input ~ 0
PWM1
$Comp
L GND #PWR03
U 1 1 561DCF6E
P 1350 2850
F 0 "#PWR03" H 1350 2600 50  0001 C CNN
F 1 "GND" H 1350 2700 50  0000 C CNN
F 2 "" H 1350 2850 60  0000 C CNN
F 3 "" H 1350 2850 60  0000 C CNN
	1    1350 2850
	1    0    0    -1  
$EndComp
Text GLabel 1500 2350 2    60   Output ~ 0
PWM1
Text GLabel 1500 2500 2    60   Output ~ 0
PWM2
Text GLabel 1500 2650 2    60   Output ~ 0
PWM3
$Comp
L GND #PWR04
U 1 1 561E01A4
P 1200 1450
F 0 "#PWR04" H 1200 1200 50  0001 C CNN
F 1 "GND" H 1200 1300 50  0000 C CNN
F 2 "" H 1200 1450 60  0000 C CNN
F 3 "" H 1200 1450 60  0000 C CNN
	1    1200 1450
	1    0    0    -1  
$EndComp
$Comp
L +12V #PWR05
U 1 1 561E02B1
P 1200 1200
F 0 "#PWR05" H 1200 1050 50  0001 C CNN
F 1 "+12V" H 1200 1350 50  0000 C CNN
F 2 "" H 1200 1200 60  0000 C CNN
F 3 "" H 1200 1200 60  0000 C CNN
	1    1200 1200
	1    0    0    -1  
$EndComp
Text Notes 850  900  0    60   ~ 0
Alimentation externe
$Comp
L PWR_FLAG #FLG06
U 1 1 561E0380
P 1400 1450
F 0 "#FLG06" H 1400 1545 50  0001 C CNN
F 1 "PWR_FLAG" V 1600 1600 50  0000 C CNN
F 2 "" H 1400 1450 60  0000 C CNN
F 3 "" H 1400 1450 60  0000 C CNN
	1    1400 1450
	0    1    1    0   
$EndComp
$Comp
L PWR_FLAG #FLG07
U 1 1 561E03FE
P 1400 1200
F 0 "#FLG07" H 1400 1295 50  0001 C CNN
F 1 "PWR_FLAG" V 1250 1350 50  0000 C CNN
F 2 "" H 1400 1200 60  0000 C CNN
F 3 "" H 1400 1200 60  0000 C CNN
	1    1400 1200
	0    1    1    0   
$EndComp
$Comp
L USB_B P2
U 1 1 561E1694
P 1050 2550
F 0 "P2" H 1250 2350 50  0000 C CNN
F 1 "USB_B" H 1000 2750 50  0000 C CNN
F 2 "Resonance:_USB_B" V 1000 2450 60  0001 C CNN
F 3 "" V 1000 2450 60  0000 C CNN
	1    1050 2550
	0    -1   1    0   
$EndComp
Text Notes 800  2150 0    60   ~ 0
Connecteur spécial\nArduino (sorties PWM)
Text Notes 2300 1000 0    60   ~ 0
Contrôle de puissance\nMosfets N-Channel Logic Level
Text GLabel 4550 2450 0    60   Input ~ 0
PWM1
Text GLabel 4550 2550 0    60   Input ~ 0
PWM2
Text GLabel 4550 2650 0    60   Input ~ 0
PWM3
$Comp
L CONN_01X04 P4
U 1 1 56264074
P 4750 2600
F 0 "P4" H 4750 2850 50  0000 C CNN
F 1 "1x4-LED_RGB" V 4850 2600 50  0000 C CNN
F 2 "Resonance:_PinHeader_1x04" H 4750 2600 60  0001 C CNN
F 3 "" H 4750 2600 60  0000 C CNN
	1    4750 2600
	1    0    0    -1  
$EndComp
$Comp
L GND #PWR08
U 1 1 56264442
P 4550 2750
F 0 "#PWR08" H 4550 2500 50  0001 C CNN
F 1 "GND" H 4550 2600 50  0000 C CNN
F 2 "" H 4550 2750 60  0000 C CNN
F 3 "" H 4550 2750 60  0000 C CNN
	1    4550 2750
	1    0    0    -1  
$EndComp
Text Notes 4200 2200 0    60   ~ 0
Connecteurs LED RVB\n(DISK DFROBOT)\n
Text GLabel 4550 3500 0    60   Input ~ 0
PWM1
Text GLabel 4550 3700 0    60   Input ~ 0
PWM2
Text GLabel 4550 3900 0    60   Input ~ 0
PWM3
$Comp
L R R7
U 1 1 56262B0C
P 4700 3500
F 0 "R7" V 4600 3500 50  0000 C CNN
F 1 "270" V 4700 3500 50  0000 C CNN
F 2 "Resonance:_R_ThroughHole" V 4630 3500 30  0001 C CNN
F 3 "" H 4700 3500 30  0000 C CNN
	1    4700 3500
	0    1    1    0   
$EndComp
$Comp
L R R8
U 1 1 56262D65
P 4700 3700
F 0 "R8" V 4600 3700 50  0000 C CNN
F 1 "270" V 4700 3700 50  0000 C CNN
F 2 "Resonance:_R_ThroughHole" V 4630 3700 30  0001 C CNN
F 3 "" H 4700 3700 30  0000 C CNN
	1    4700 3700
	0    1    1    0   
$EndComp
$Comp
L R R9
U 1 1 56262DE1
P 4700 3900
F 0 "R9" V 4600 3900 50  0000 C CNN
F 1 "270" V 4700 3900 50  0000 C CNN
F 2 "Resonance:_R_ThroughHole" V 4630 3900 30  0001 C CNN
F 3 "" H 4700 3900 30  0000 C CNN
	1    4700 3900
	0    1    1    0   
$EndComp
$Comp
L CONN_01X02 P1
U 1 1 5626AC72
P 1000 1250
F 0 "P1" H 1000 1400 50  0000 C CNN
F 1 "CONN_01X02" V 1100 1250 50  0000 C CNN
F 2 "Resonance:_Bornier_2" H 1000 1250 60  0001 C CNN
F 3 "" H 1000 1250 60  0000 C CNN
	1    1000 1250
	-1   0    0    1   
$EndComp
Text GLabel 3600 1650 2    60   Output ~ 0
L1
$Comp
L R R2
U 1 1 56267140
P 2750 3200
F 0 "R2" V 2830 3200 50  0000 C CNN
F 1 "100" V 2750 3200 50  0000 C CNN
F 2 "Resonance:_R_ThroughHole" V 2680 3200 30  0001 C CNN
F 3 "" H 2750 3200 30  0000 C CNN
	1    2750 3200
	0    -1   -1   0   
$EndComp
$Comp
L R R5
U 1 1 56267146
P 2900 3400
F 0 "R5" V 3000 3400 50  0000 C CNN
F 1 "10K" V 2900 3400 50  0000 C CNN
F 2 "Resonance:_R_ThroughHole" V 2830 3400 30  0001 C CNN
F 3 "" H 2900 3400 30  0000 C CNN
	1    2900 3400
	1    0    0    -1  
$EndComp
$Comp
L +12V #PWR09
U 1 1 5626714C
P 3300 2700
F 0 "#PWR09" H 3300 2550 50  0001 C CNN
F 1 "+12V" H 3300 2840 50  0000 C CNN
F 2 "" H 3300 2700 60  0000 C CNN
F 3 "" H 3300 2700 60  0000 C CNN
	1    3300 2700
	1    0    0    -1  
$EndComp
$Comp
L D D2
U 1 1 56267152
P 3300 2850
F 0 "D2" H 3300 2950 50  0000 C CNN
F 1 "1N4007" H 3300 2750 50  0000 C CNN
F 2 "Resonance:_Diode_DO-41" H 3300 2850 60  0001 C CNN
F 3 "" H 3300 2850 60  0000 C CNN
	1    3300 2850
	0    1    1    0   
$EndComp
$Comp
L GND #PWR010
U 1 1 56267158
P 3300 3550
F 0 "#PWR010" H 3300 3300 50  0001 C CNN
F 1 "GND" H 3300 3400 50  0000 C CNN
F 2 "" H 3300 3550 60  0000 C CNN
F 3 "" H 3300 3550 60  0000 C CNN
	1    3300 3550
	1    0    0    -1  
$EndComp
Text GLabel 2600 3200 0    60   Input ~ 0
PWM2
Text GLabel 3600 3000 2    60   Output ~ 0
L2
$Comp
L R R3
U 1 1 56267380
P 2750 4550
F 0 "R3" V 2830 4550 50  0000 C CNN
F 1 "100" V 2750 4550 50  0000 C CNN
F 2 "Resonance:_R_ThroughHole" V 2680 4550 30  0001 C CNN
F 3 "" H 2750 4550 30  0000 C CNN
	1    2750 4550
	0    -1   -1   0   
$EndComp
$Comp
L R R6
U 1 1 56267386
P 2900 4750
F 0 "R6" V 3000 4750 50  0000 C CNN
F 1 "10K" V 2900 4750 50  0000 C CNN
F 2 "Resonance:_R_ThroughHole" V 2830 4750 30  0001 C CNN
F 3 "" H 2900 4750 30  0000 C CNN
	1    2900 4750
	1    0    0    -1  
$EndComp
$Comp
L +12V #PWR011
U 1 1 5626738C
P 3300 4050
F 0 "#PWR011" H 3300 3900 50  0001 C CNN
F 1 "+12V" H 3300 4190 50  0000 C CNN
F 2 "" H 3300 4050 60  0000 C CNN
F 3 "" H 3300 4050 60  0000 C CNN
	1    3300 4050
	1    0    0    -1  
$EndComp
$Comp
L D D3
U 1 1 56267392
P 3300 4200
F 0 "D3" H 3300 4300 50  0000 C CNN
F 1 "1N4007" H 3300 4100 50  0000 C CNN
F 2 "Resonance:_Diode_DO-41" H 3300 4200 60  0001 C CNN
F 3 "" H 3300 4200 60  0000 C CNN
	1    3300 4200
	0    1    1    0   
$EndComp
$Comp
L GND #PWR012
U 1 1 56267398
P 3300 4900
F 0 "#PWR012" H 3300 4650 50  0001 C CNN
F 1 "GND" H 3300 4750 50  0000 C CNN
F 2 "" H 3300 4900 60  0000 C CNN
F 3 "" H 3300 4900 60  0000 C CNN
	1    3300 4900
	1    0    0    -1  
$EndComp
Text GLabel 2600 4550 0    60   Input ~ 0
PWM3
Text GLabel 3600 4350 2    60   Output ~ 0
L3
$Comp
L CONN_01X06 P3
U 1 1 5626950B
P 4850 1400
F 0 "P3" H 4850 1750 50  0000 C CNN
F 1 "1x6-SOLENOIDS" V 4950 1400 50  0000 C CNN
F 2 "Resonance:_Bornier_6" H 4850 1400 60  0001 C CNN
F 3 "" H 4850 1400 60  0000 C CNN
	1    4850 1400
	1    0    0    -1  
$EndComp
$Comp
L +12V #PWR013
U 1 1 5626B4B6
P 4250 1150
F 0 "#PWR013" H 4250 1000 50  0001 C CNN
F 1 "+12V" H 4250 1300 50  0000 C CNN
F 2 "" H 4250 1150 60  0000 C CNN
F 3 "" H 4250 1150 60  0000 C CNN
	1    4250 1150
	1    0    0    -1  
$EndComp
Text GLabel 4650 1250 0    60   Input ~ 0
L1
Text GLabel 4650 1450 0    60   Input ~ 0
L2
Text GLabel 4650 1650 0    60   Input ~ 0
L3
Text Notes 4200 900  0    60   ~ 0
Connecteurs Solénoides
Text Notes 4250 3250 0    60   ~ 0
LED RVB Common Cathode
$Comp
L LED_RCBG D4
U 1 1 563A1A96
P 5150 3700
F 0 "D4" H 5150 4050 50  0000 C CNN
F 1 "LED_RCBG" H 5150 3350 50  0000 C CNN
F 2 "Resonance:_LED-RGB_CommonCathode" H 5150 3650 50  0001 C CNN
F 3 "" H 5150 3650 50  0000 C CNN
	1    5150 3700
	-1   0    0    1   
$EndComp
$Comp
L GND #PWR014
U 1 1 563A1B39
P 5450 3700
F 0 "#PWR014" H 5450 3450 50  0001 C CNN
F 1 "GND" H 5450 3550 50  0000 C CNN
F 2 "" H 5450 3700 60  0000 C CNN
F 3 "" H 5450 3700 60  0000 C CNN
	1    5450 3700
	1    0    0    -1  
$EndComp
$Comp
L _MOSFET_N Q1
U 1 1 564231F1
P 3200 1850
F 0 "Q1" H 3500 1900 50  0000 R CNN
F 1 "_MOSFET_N" H 3800 1800 50  0000 R CNN
F 2 "Resonance:_TO220_Vertical" H 3400 1950 29  0001 C CNN
F 3 "" H 3200 1850 60  0000 C CNN
	1    3200 1850
	1    0    0    -1  
$EndComp
$Comp
L _MOSFET_N Q2
U 1 1 5642350C
P 3200 3200
F 0 "Q2" H 3500 3250 50  0000 R CNN
F 1 "_MOSFET_N" H 3800 3150 50  0000 R CNN
F 2 "Resonance:_TO220_Vertical" H 3400 3300 29  0001 C CNN
F 3 "" H 3200 3200 60  0000 C CNN
	1    3200 3200
	1    0    0    -1  
$EndComp
$Comp
L _MOSFET_N Q3
U 1 1 564235BB
P 3200 4550
F 0 "Q3" H 3500 4600 50  0000 R CNN
F 1 "_MOSFET_N" H 3800 4500 50  0000 R CNN
F 2 "Resonance:_TO220_Vertical" H 3400 4650 29  0001 C CNN
F 3 "" H 3200 4550 60  0000 C CNN
	1    3200 4550
	1    0    0    -1  
$EndComp
Wire Wire Line
	1350 2350 1500 2350
Wire Wire Line
	1350 2450 1450 2450
Wire Wire Line
	1450 2450 1450 2500
Wire Wire Line
	1450 2500 1500 2500
Wire Wire Line
	1350 2550 1450 2550
Wire Wire Line
	1450 2550 1450 2650
Wire Wire Line
	1450 2650 1500 2650
Wire Wire Line
	1350 2650 1350 2850
Wire Wire Line
	1350 2850 950  2850
Wire Wire Line
	2900 2200 3300 2200
Wire Wire Line
	1200 1200 1400 1200
Wire Wire Line
	1400 1450 1200 1450
Wire Wire Line
	1200 1450 1200 1300
Wire Wire Line
	2900 3250 2900 3200
Connection ~ 2900 3200
Wire Wire Line
	2900 3550 3300 3550
Wire Wire Line
	2900 4600 2900 4550
Wire Wire Line
	2900 4900 3300 4900
Wire Wire Line
	4650 1150 4250 1150
Wire Wire Line
	4650 1350 4250 1350
Wire Wire Line
	4250 1150 4250 1550
Wire Wire Line
	4250 1550 4650 1550
Connection ~ 4250 1350
Wire Wire Line
	2900 1850 2900 1900
Wire Wire Line
	3000 1850 2900 1850
Wire Wire Line
	3300 2200 3300 2050
Wire Wire Line
	3600 1650 3300 1650
Wire Wire Line
	3600 4350 3300 4350
Wire Wire Line
	2900 4550 3000 4550
Wire Wire Line
	3300 4900 3300 4750
Wire Wire Line
	3300 3550 3300 3400
Wire Wire Line
	2900 3200 3000 3200
Wire Wire Line
	3600 3000 3300 3000
Connection ~ 3300 3000
Connection ~ 3300 3550
Connection ~ 3300 4350
Connection ~ 3300 4900
Connection ~ 2900 4550
Connection ~ 3300 2200
Connection ~ 2900 1850
Connection ~ 3300 1650
Text Notes 4250 4800 0    39   Italic 0
Mosfet de surface :\nIRLR2905 / Q_NMOS_GDSD / D-PAK \n\nMosfet traversant :\nFQP330N06L ou IRL540N / Q_NMOS_GDS / TO-220
$EndSCHEMATC
